digraph "tinyxml2::XMLAttribute::SetAttribute"
{
  edge [fontname="Helvetica",fontsize="10",labelfontname="Helvetica",labelfontsize="10"];
  node [fontname="Helvetica",fontsize="10",shape=record];
  rankdir="LR";
  Node1 [label="tinyxml2::XMLAttribute\l::SetAttribute",height=0.2,width=0.4,color="black", fillcolor="grey75", style="filled" fontcolor="black"];
  Node1 -> Node2 [color="midnightblue",fontsize="10",style="solid"];
  Node2 [label="tinyxml2::XMLUtil::\lToStr",height=0.2,width=0.4,color="black", fillcolor="white", style="filled",URL="$classtinyxml2_1_1_x_m_l_util.html#a3cd6c703d49b9d51bdf0f4ff6aa021c7"];
  Node1 -> Node3 [color="midnightblue",fontsize="10",style="solid"];
  Node3 [label="tinyxml2::StrPair::\lSetStr",height=0.2,width=0.4,color="black", fillcolor="white", style="filled",URL="$classtinyxml2_1_1_str_pair.html#a1f82ec6b5bee35ee7466d8565e43b1de"];
}
