digraph "mnb::CFG::printToXML"
{
  edge [fontname="Helvetica",fontsize="10",labelfontname="Helvetica",labelfontsize="10"];
  node [fontname="Helvetica",fontsize="10",shape=record];
  rankdir="LR";
  Node1 [label="mnb::CFG::printToXML",height=0.2,width=0.4,color="black", fillcolor="grey75", style="filled" fontcolor="black"];
  Node1 -> Node2 [color="midnightblue",fontsize="10",style="solid"];
  Node2 [label="mnb::Verbose::addFunction",height=0.2,width=0.4,color="black", fillcolor="white", style="filled",URL="$classmnb_1_1_verbose.html#ae59a44bad04e18ad25dba8a37b82f698"];
  Node1 -> Node3 [color="midnightblue",fontsize="10",style="solid"];
  Node3 [label="mnb::Verbose::comment",height=0.2,width=0.4,color="black", fillcolor="white", style="filled",URL="$classmnb_1_1_verbose.html#a81aad808fcdb0b6c1319fb89dbe68518"];
  Node1 -> Node4 [color="midnightblue",fontsize="10",style="solid"];
  Node4 [label="tinyxml2::XMLNode::\lInsertEndChild",height=0.2,width=0.4,color="black", fillcolor="white", style="filled",URL="$classtinyxml2_1_1_x_m_l_node.html#ae3b422e98914d6002ca99bb1d2837103"];
  Node4 -> Node5 [color="midnightblue",fontsize="10",style="solid"];
  Node5 [label="tinyxml2::MemPool::\lSetTracked",height=0.2,width=0.4,color="black", fillcolor="white", style="filled",URL="$classtinyxml2_1_1_mem_pool.html#ac5804dd1387b2e4de5eef710076a0db1"];
  Node1 -> Node6 [color="midnightblue",fontsize="10",style="solid"];
  Node6 [label="tinyxml2::XMLDocument\l::NewElement",height=0.2,width=0.4,color="black", fillcolor="white", style="filled",URL="$classtinyxml2_1_1_x_m_l_document.html#a3c335a700a43d7c363a393142a23f234"];
  Node6 -> Node7 [color="midnightblue",fontsize="10",style="solid"];
  Node7 [label="tinyxml2::XMLElement\l::SetName",height=0.2,width=0.4,color="black", fillcolor="white", style="filled",URL="$classtinyxml2_1_1_x_m_l_element.html#a97712009a530d8cb8a63bf705f02b4f1",tooltip="Set the name of the element. "];
  Node1 -> Node8 [color="midnightblue",fontsize="10",style="solid"];
  Node8 [label="tinyxml2::XMLNode::\lInsertFirstChild",height=0.2,width=0.4,color="black", fillcolor="white", style="filled",URL="$classtinyxml2_1_1_x_m_l_node.html#ac609a8f3ea949027f439280c640bbaf2"];
  Node8 -> Node5 [color="midnightblue",fontsize="10",style="solid"];
  Node1 -> Node9 [color="midnightblue",fontsize="10",style="solid"];
  Node9 [label="tinyxml2::XMLDocument\l::NewText",height=0.2,width=0.4,color="black", fillcolor="white", style="filled",URL="$classtinyxml2_1_1_x_m_l_document.html#acece5de77a0819f2341b08c1e1ed9987"];
  Node9 -> Node10 [color="midnightblue",fontsize="10",style="solid"];
  Node10 [label="tinyxml2::XMLNode::\lSetValue",height=0.2,width=0.4,color="black", fillcolor="white", style="filled",URL="$classtinyxml2_1_1_x_m_l_node.html#a09dd68cf9eae137579f6e50f36487513"];
  Node10 -> Node11 [color="midnightblue",fontsize="10",style="solid"];
  Node11 [label="tinyxml2::StrPair::\lSetInternedStr",height=0.2,width=0.4,color="black", fillcolor="white", style="filled",URL="$classtinyxml2_1_1_str_pair.html#a2baf6230e18333e02ab65d0897ee3941"];
  Node10 -> Node12 [color="midnightblue",fontsize="10",style="solid"];
  Node12 [label="tinyxml2::StrPair::\lSetStr",height=0.2,width=0.4,color="black", fillcolor="white", style="filled",URL="$classtinyxml2_1_1_str_pair.html#a1f82ec6b5bee35ee7466d8565e43b1de"];
  Node1 -> Node13 [color="midnightblue",fontsize="10",style="solid"];
  Node13 [label="tinyxml2::XMLNode::\lInsertAfterChild",height=0.2,width=0.4,color="black", fillcolor="white", style="filled",URL="$classtinyxml2_1_1_x_m_l_node.html#a9275138a1b8dd5d8e2c26789bdc23ac8"];
  Node13 -> Node4 [color="midnightblue",fontsize="10",style="solid"];
  Node13 -> Node5 [color="midnightblue",fontsize="10",style="solid"];
  Node1 -> Node14 [color="midnightblue",fontsize="10",style="solid"];
  Node14 [label="tinyxml2::XMLDocument\l::SaveFile",height=0.2,width=0.4,color="black", fillcolor="white", style="filled",URL="$classtinyxml2_1_1_x_m_l_document.html#a73ac416b4a2aa0952e841220eb3da18f"];
  Node14 -> Node15 [color="midnightblue",fontsize="10",style="solid"];
  Node15 [label="tinyxml2::XMLDocument\l::SetError",height=0.2,width=0.4,color="black", fillcolor="white", style="filled",URL="$classtinyxml2_1_1_x_m_l_document.html#ae38d194e47336e4c96677ac77e2ac5d4"];
  Node1 -> Node16 [color="midnightblue",fontsize="10",style="solid"];
  Node16 [label="mnb::Verbose::closeCurrent\lFunction",height=0.2,width=0.4,color="black", fillcolor="white", style="filled",URL="$classmnb_1_1_verbose.html#afb1b400e57842a699a5767249daafa2e"];
}
