digraph "tinyxml2::StrPair::ParseText"
{
  edge [fontname="Helvetica",fontsize="10",labelfontname="Helvetica",labelfontsize="10"];
  node [fontname="Helvetica",fontsize="10",shape=record];
  rankdir="LR";
  Node1 [label="tinyxml2::StrPair::\lParseText",height=0.2,width=0.4,color="black", fillcolor="grey75", style="filled" fontcolor="black"];
  Node1 -> Node2 [color="midnightblue",fontsize="10",style="solid"];
  Node2 [label="tinyxml2::StrPair::Set",height=0.2,width=0.4,color="black", fillcolor="white", style="filled",URL="$classtinyxml2_1_1_str_pair.html#a4f05549373394266a1eecba26813c166"];
}
