digraph "tinyxml2::XMLUnknown::ShallowClone"
{
  edge [fontname="Helvetica",fontsize="10",labelfontname="Helvetica",labelfontsize="10"];
  node [fontname="Helvetica",fontsize="10",shape=record];
  rankdir="LR";
  Node1 [label="tinyxml2::XMLUnknown\l::ShallowClone",height=0.2,width=0.4,color="black", fillcolor="grey75", style="filled" fontcolor="black"];
  Node1 -> Node2 [color="midnightblue",fontsize="10",style="solid"];
  Node2 [label="tinyxml2::XMLDocument\l::NewUnknown",height=0.2,width=0.4,color="black", fillcolor="white", style="filled",URL="$classtinyxml2_1_1_x_m_l_document.html#a4954f502c5fd7f49de54c3c0c99bb73d"];
  Node2 -> Node3 [color="midnightblue",fontsize="10",style="solid"];
  Node3 [label="tinyxml2::XMLNode::\lSetValue",height=0.2,width=0.4,color="black", fillcolor="white", style="filled",URL="$classtinyxml2_1_1_x_m_l_node.html#a09dd68cf9eae137579f6e50f36487513"];
  Node3 -> Node4 [color="midnightblue",fontsize="10",style="solid"];
  Node4 [label="tinyxml2::StrPair::\lSetInternedStr",height=0.2,width=0.4,color="black", fillcolor="white", style="filled",URL="$classtinyxml2_1_1_str_pair.html#a2baf6230e18333e02ab65d0897ee3941"];
  Node3 -> Node5 [color="midnightblue",fontsize="10",style="solid"];
  Node5 [label="tinyxml2::StrPair::\lSetStr",height=0.2,width=0.4,color="black", fillcolor="white", style="filled",URL="$classtinyxml2_1_1_str_pair.html#a1f82ec6b5bee35ee7466d8565e43b1de"];
  Node1 -> Node6 [color="midnightblue",fontsize="10",style="solid"];
  Node6 [label="tinyxml2::XMLNode::\lValue",height=0.2,width=0.4,color="black", fillcolor="white", style="filled",URL="$classtinyxml2_1_1_x_m_l_node.html#a92835c779871918f9af569bfe9669fe6"];
  Node6 -> Node7 [color="midnightblue",fontsize="10",style="solid"];
  Node7 [label="tinyxml2::StrPair::\lGetStr",height=0.2,width=0.4,color="black", fillcolor="white", style="filled",URL="$classtinyxml2_1_1_str_pair.html#ad87e3d11330f5e689ba1e7e54c023b57"];
  Node7 -> Node8 [color="midnightblue",fontsize="10",style="solid"];
  Node8 [label="tinyxml2::XMLUtil::\lGetCharacterRef",height=0.2,width=0.4,color="black", fillcolor="white", style="filled",URL="$classtinyxml2_1_1_x_m_l_util.html#a5a96e5144a8d693dc4bcd783d9964648"];
  Node8 -> Node9 [color="midnightblue",fontsize="10",style="solid"];
  Node9 [label="tinyxml2::XMLUtil::\lConvertUTF32ToUTF8",height=0.2,width=0.4,color="black", fillcolor="white", style="filled",URL="$classtinyxml2_1_1_x_m_l_util.html#a31c00d5c5dfb38382de1dfcaf4be3595"];
}
