digraph "tinyxml2::XMLText::Accept"
{
  edge [fontname="Helvetica",fontsize="10",labelfontname="Helvetica",labelfontsize="10"];
  node [fontname="Helvetica",fontsize="10",shape=record];
  rankdir="LR";
  Node1 [label="tinyxml2::XMLText::\lAccept",height=0.2,width=0.4,color="black", fillcolor="grey75", style="filled" fontcolor="black"];
  Node1 -> Node2 [color="midnightblue",fontsize="10",style="solid"];
  Node2 [label="tinyxml2::XMLVisitor\l::Visit",height=0.2,width=0.4,color="black", fillcolor="white", style="filled",URL="$classtinyxml2_1_1_x_m_l_visitor.html#adc75bd459fc7ba8223b50f0616767f9a",tooltip="Visit a declaration. "];
}
