digraph "tinyxml2::XMLDocument::Parse"
{
  edge [fontname="Helvetica",fontsize="10",labelfontname="Helvetica",labelfontsize="10"];
  node [fontname="Helvetica",fontsize="10",shape=record];
  rankdir="LR";
  Node1 [label="tinyxml2::XMLDocument\l::Parse",height=0.2,width=0.4,color="black", fillcolor="grey75", style="filled" fontcolor="black"];
  Node1 -> Node2 [color="midnightblue",fontsize="10",style="solid"];
  Node2 [label="tinyxml2::XMLDocument\l::Clear",height=0.2,width=0.4,color="black", fillcolor="white", style="filled",URL="$classtinyxml2_1_1_x_m_l_document.html#a65656b0b2cbc822708eb351504178aaf",tooltip="Clear the document, resetting it to the initial state. "];
  Node2 -> Node3 [color="midnightblue",fontsize="10",style="solid"];
  Node3 [label="tinyxml2::XMLNode::\lDeleteChildren",height=0.2,width=0.4,color="black", fillcolor="white", style="filled",URL="$classtinyxml2_1_1_x_m_l_node.html#a0360085cc54df5bff85d5c5da13afdce"];
  Node1 -> Node4 [color="midnightblue",fontsize="10",style="solid"];
  Node4 [label="tinyxml2::XMLDocument\l::SetError",height=0.2,width=0.4,color="black", fillcolor="white", style="filled",URL="$classtinyxml2_1_1_x_m_l_document.html#ae38d194e47336e4c96677ac77e2ac5d4"];
  Node1 -> Node5 [color="midnightblue",fontsize="10",style="solid"];
  Node5 [label="tinyxml2::XMLUtil::\lSkipWhiteSpace",height=0.2,width=0.4,color="black", fillcolor="white", style="filled",URL="$classtinyxml2_1_1_x_m_l_util.html#a9333d20f2a34325b5115ca45849c4b2a"];
  Node1 -> Node6 [color="midnightblue",fontsize="10",style="solid"];
  Node6 [label="tinyxml2::XMLUtil::\lReadBOM",height=0.2,width=0.4,color="black", fillcolor="white", style="filled",URL="$classtinyxml2_1_1_x_m_l_util.html#ae9bcb2bc3cd6475fdc644c8c17790555"];
  Node1 -> Node7 [color="midnightblue",fontsize="10",style="solid"];
  Node7 [label="tinyxml2::XMLNode::\lParseDeep",height=0.2,width=0.4,color="black", fillcolor="white", style="filled",URL="$classtinyxml2_1_1_x_m_l_node.html#a7610d0f603e8b603d2078521811a23c1"];
  Node7 -> Node8 [color="midnightblue",fontsize="10",style="solid"];
  Node8 [label="tinyxml2::XMLDocument\l::Identify",height=0.2,width=0.4,color="black", fillcolor="white", style="filled",URL="$classtinyxml2_1_1_x_m_l_document.html#a25827d1bec509ad566a107e5853ed040"];
  Node8 -> Node5 [color="midnightblue",fontsize="10",style="solid"];
  Node8 -> Node9 [color="midnightblue",fontsize="10",style="solid"];
  Node9 [label="tinyxml2::XMLUtil::\lStringEqual",height=0.2,width=0.4,color="black", fillcolor="white", style="filled",URL="$classtinyxml2_1_1_x_m_l_util.html#acfcd287cacfd2533e1bc9ea4dfb56602"];
  Node8 -> Node10 [color="midnightblue",fontsize="10",style="solid"];
  Node10 [label="tinyxml2::XMLText::\lSetCData",height=0.2,width=0.4,color="black", fillcolor="white", style="filled",URL="$classtinyxml2_1_1_x_m_l_text.html#ad080357d76ab7cc59d7651249949329d",tooltip="Declare whether this should be CDATA or standard text. "];
  Node7 -> Node7 [color="midnightblue",fontsize="10",style="solid"];
  Node7 -> Node11 [color="midnightblue",fontsize="10",style="solid"];
  Node11 [label="tinyxml2::XMLDocument\l::Error",height=0.2,width=0.4,color="black", fillcolor="white", style="filled",URL="$classtinyxml2_1_1_x_m_l_document.html#abf0f9ac4c3aa5698a785937f71f7a69f",tooltip="Return true if there was an error parsing the document. "];
  Node7 -> Node4 [color="midnightblue",fontsize="10",style="solid"];
  Node7 -> Node12 [color="midnightblue",fontsize="10",style="solid"];
  Node12 [label="tinyxml2::XMLNode::\lToElement",height=0.2,width=0.4,color="black", fillcolor="white", style="filled",URL="$classtinyxml2_1_1_x_m_l_node.html#aab516e699567f75cc9ab2ef2eee501e8",tooltip="Safely cast to an Element, or null. "];
  Node7 -> Node13 [color="midnightblue",fontsize="10",style="solid"];
  Node13 [label="tinyxml2::XMLElement\l::ClosingType",height=0.2,width=0.4,color="black", fillcolor="white", style="filled",URL="$classtinyxml2_1_1_x_m_l_element.html#a2e3d9f938307a05963d7c4b8cd55754e"];
  Node7 -> Node14 [color="midnightblue",fontsize="10",style="solid"];
  Node14 [label="tinyxml2::MemPool::\lSetTracked",height=0.2,width=0.4,color="black", fillcolor="white", style="filled",URL="$classtinyxml2_1_1_mem_pool.html#ac5804dd1387b2e4de5eef710076a0db1"];
  Node7 -> Node15 [color="midnightblue",fontsize="10",style="solid"];
  Node15 [label="tinyxml2::StrPair::\lEmpty",height=0.2,width=0.4,color="black", fillcolor="white", style="filled",URL="$classtinyxml2_1_1_str_pair.html#affa1043e73a18f05d5d2faec055725a7"];
  Node7 -> Node16 [color="midnightblue",fontsize="10",style="solid"];
  Node16 [label="tinyxml2::XMLNode::\lValue",height=0.2,width=0.4,color="black", fillcolor="white", style="filled",URL="$classtinyxml2_1_1_x_m_l_node.html#a92835c779871918f9af569bfe9669fe6"];
  Node16 -> Node17 [color="midnightblue",fontsize="10",style="solid"];
  Node17 [label="tinyxml2::StrPair::\lGetStr",height=0.2,width=0.4,color="black", fillcolor="white", style="filled",URL="$classtinyxml2_1_1_str_pair.html#ad87e3d11330f5e689ba1e7e54c023b57"];
  Node17 -> Node18 [color="midnightblue",fontsize="10",style="solid"];
  Node18 [label="tinyxml2::XMLUtil::\lGetCharacterRef",height=0.2,width=0.4,color="black", fillcolor="white", style="filled",URL="$classtinyxml2_1_1_x_m_l_util.html#a5a96e5144a8d693dc4bcd783d9964648"];
  Node18 -> Node19 [color="midnightblue",fontsize="10",style="solid"];
  Node19 [label="tinyxml2::XMLUtil::\lConvertUTF32ToUTF8",height=0.2,width=0.4,color="black", fillcolor="white", style="filled",URL="$classtinyxml2_1_1_x_m_l_util.html#a31c00d5c5dfb38382de1dfcaf4be3595"];
  Node7 -> Node9 [color="midnightblue",fontsize="10",style="solid"];
  Node7 -> Node17 [color="midnightblue",fontsize="10",style="solid"];
  Node7 -> Node20 [color="midnightblue",fontsize="10",style="solid"];
  Node20 [label="tinyxml2::XMLNode::\lInsertEndChild",height=0.2,width=0.4,color="black", fillcolor="white", style="filled",URL="$classtinyxml2_1_1_x_m_l_node.html#ae3b422e98914d6002ca99bb1d2837103"];
  Node20 -> Node14 [color="midnightblue",fontsize="10",style="solid"];
}
