digraph "tinyxml2::XMLUnknown::ShallowEqual"
{
  edge [fontname="Helvetica",fontsize="10",labelfontname="Helvetica",labelfontsize="10"];
  node [fontname="Helvetica",fontsize="10",shape=record];
  rankdir="LR";
  Node1 [label="tinyxml2::XMLUnknown\l::ShallowEqual",height=0.2,width=0.4,color="black", fillcolor="grey75", style="filled" fontcolor="black"];
  Node1 -> Node2 [color="midnightblue",fontsize="10",style="solid"];
  Node2 [label="tinyxml2::XMLNode::\lToUnknown",height=0.2,width=0.4,color="black", fillcolor="white", style="filled",URL="$classtinyxml2_1_1_x_m_l_node.html#a8675a74aa0ada6eccab0c77ef3e5b9bd",tooltip="Safely cast to an Unknown, or null. "];
  Node1 -> Node3 [color="midnightblue",fontsize="10",style="solid"];
  Node3 [label="tinyxml2::XMLUtil::\lStringEqual",height=0.2,width=0.4,color="black", fillcolor="white", style="filled",URL="$classtinyxml2_1_1_x_m_l_util.html#acfcd287cacfd2533e1bc9ea4dfb56602"];
  Node1 -> Node4 [color="midnightblue",fontsize="10",style="solid"];
  Node4 [label="tinyxml2::XMLNode::\lValue",height=0.2,width=0.4,color="black", fillcolor="white", style="filled",URL="$classtinyxml2_1_1_x_m_l_node.html#a92835c779871918f9af569bfe9669fe6"];
  Node4 -> Node5 [color="midnightblue",fontsize="10",style="solid"];
  Node5 [label="tinyxml2::StrPair::\lGetStr",height=0.2,width=0.4,color="black", fillcolor="white", style="filled",URL="$classtinyxml2_1_1_str_pair.html#ad87e3d11330f5e689ba1e7e54c023b57"];
  Node5 -> Node6 [color="midnightblue",fontsize="10",style="solid"];
  Node6 [label="tinyxml2::XMLUtil::\lGetCharacterRef",height=0.2,width=0.4,color="black", fillcolor="white", style="filled",URL="$classtinyxml2_1_1_x_m_l_util.html#a5a96e5144a8d693dc4bcd783d9964648"];
  Node6 -> Node7 [color="midnightblue",fontsize="10",style="solid"];
  Node7 [label="tinyxml2::XMLUtil::\lConvertUTF32ToUTF8",height=0.2,width=0.4,color="black", fillcolor="white", style="filled",URL="$classtinyxml2_1_1_x_m_l_util.html#a31c00d5c5dfb38382de1dfcaf4be3595"];
}
