\contentsline {chapter}{\numberline {1}Namespace Index}{1}{chapter.1}
\contentsline {section}{\numberline {1.1}Namespace List}{1}{section.1.1}
\contentsline {chapter}{\numberline {2}Hierarchical Index}{3}{chapter.2}
\contentsline {section}{\numberline {2.1}Class Hierarchy}{3}{section.2.1}
\contentsline {chapter}{\numberline {3}Class Index}{5}{chapter.3}
\contentsline {section}{\numberline {3.1}Class List}{5}{section.3.1}
\contentsline {chapter}{\numberline {4}File Index}{7}{chapter.4}
\contentsline {section}{\numberline {4.1}File List}{7}{section.4.1}
\contentsline {chapter}{\numberline {5}Namespace Documentation}{9}{chapter.5}
\contentsline {section}{\numberline {5.1}mnb Namespace Reference}{9}{section.5.1}
\contentsline {subsection}{\numberline {5.1.1}Function Documentation}{9}{subsection.5.1.1}
\contentsline {subsubsection}{\numberline {5.1.1.1}convert\discretionary {-}{}{}Int}{9}{subsubsection.5.1.1.1}
\contentsline {subsubsection}{\numberline {5.1.1.2}in\discretionary {-}{}{}Vector}{9}{subsubsection.5.1.1.2}
\contentsline {subsubsection}{\numberline {5.1.1.3}operator$<$$<$}{10}{subsubsection.5.1.1.3}
\contentsline {subsubsection}{\numberline {5.1.1.4}operator$<$$<$}{10}{subsubsection.5.1.1.4}
\contentsline {section}{\numberline {5.2}tinyxml2 Namespace Reference}{10}{section.5.2}
\contentsline {subsection}{\numberline {5.2.1}Enumeration Type Documentation}{11}{subsection.5.2.1}
\contentsline {subsubsection}{\numberline {5.2.1.1}Whitespace}{11}{subsubsection.5.2.1.1}
\contentsline {subsubsection}{\numberline {5.2.1.2}X\discretionary {-}{}{}M\discretionary {-}{}{}L\discretionary {-}{}{}Error}{11}{subsubsection.5.2.1.2}
\contentsline {section}{\numberline {5.3}zkr Namespace Reference}{12}{section.5.3}
\contentsline {subsection}{\numberline {5.3.1}Enumeration Type Documentation}{12}{subsection.5.3.1}
\contentsline {subsubsection}{\numberline {5.3.1.1}Attributes}{12}{subsubsection.5.3.1.1}
\contentsline {subsubsection}{\numberline {5.3.1.2}Color}{12}{subsubsection.5.3.1.2}
\contentsline {chapter}{\numberline {6}Class Documentation}{15}{chapter.6}
\contentsline {section}{\numberline {6.1}zkr\discretionary {-}{}{}:\discretionary {-}{}{}:cc\discretionary {-}{}{}:\discretionary {-}{}{}:back Class Reference}{15}{section.6.1}
\contentsline {subsection}{\numberline {6.1.1}Member Data Documentation}{15}{subsection.6.1.1}
\contentsline {subsubsection}{\numberline {6.1.1.1}black}{15}{subsubsection.6.1.1.1}
\contentsline {subsubsection}{\numberline {6.1.1.2}blue}{15}{subsubsection.6.1.1.2}
\contentsline {subsubsection}{\numberline {6.1.1.3}console}{15}{subsubsection.6.1.1.3}
\contentsline {subsubsection}{\numberline {6.1.1.4}cyan}{15}{subsubsection.6.1.1.4}
\contentsline {subsubsection}{\numberline {6.1.1.5}green}{15}{subsubsection.6.1.1.5}
\contentsline {subsubsection}{\numberline {6.1.1.6}lightblack}{15}{subsubsection.6.1.1.6}
\contentsline {subsubsection}{\numberline {6.1.1.7}lightblue}{16}{subsubsection.6.1.1.7}
\contentsline {subsubsection}{\numberline {6.1.1.8}lightcyan}{16}{subsubsection.6.1.1.8}
\contentsline {subsubsection}{\numberline {6.1.1.9}lightgreen}{16}{subsubsection.6.1.1.9}
\contentsline {subsubsection}{\numberline {6.1.1.10}lightmagenta}{16}{subsubsection.6.1.1.10}
\contentsline {subsubsection}{\numberline {6.1.1.11}lightred}{16}{subsubsection.6.1.1.11}
\contentsline {subsubsection}{\numberline {6.1.1.12}lightwhite}{16}{subsubsection.6.1.1.12}
\contentsline {subsubsection}{\numberline {6.1.1.13}lightyellow}{16}{subsubsection.6.1.1.13}
\contentsline {subsubsection}{\numberline {6.1.1.14}magenta}{16}{subsubsection.6.1.1.14}
\contentsline {subsubsection}{\numberline {6.1.1.15}red}{16}{subsubsection.6.1.1.15}
\contentsline {subsubsection}{\numberline {6.1.1.16}white}{16}{subsubsection.6.1.1.16}
\contentsline {subsubsection}{\numberline {6.1.1.17}yellow}{16}{subsubsection.6.1.1.17}
\contentsline {section}{\numberline {6.2}zkr\discretionary {-}{}{}:\discretionary {-}{}{}:cc Class Reference}{16}{section.6.2}
\contentsline {subsection}{\numberline {6.2.1}Member Function Documentation}{16}{subsection.6.2.1}
\contentsline {subsubsection}{\numberline {6.2.1.1}color}{16}{subsubsection.6.2.1.1}
\contentsline {subsection}{\numberline {6.2.2}Member Data Documentation}{17}{subsection.6.2.2}
\contentsline {subsubsection}{\numberline {6.2.2.1}console}{17}{subsubsection.6.2.2.1}
\contentsline {subsubsection}{\numberline {6.2.2.2}underline}{17}{subsubsection.6.2.2.2}
\contentsline {section}{\numberline {6.3}mnb\discretionary {-}{}{}:\discretionary {-}{}{}:C\discretionary {-}{}{}F\discretionary {-}{}{}G Class Reference}{17}{section.6.3}
\contentsline {subsection}{\numberline {6.3.1}Constructor \& Destructor Documentation}{17}{subsection.6.3.1}
\contentsline {subsubsection}{\numberline {6.3.1.1}C\discretionary {-}{}{}F\discretionary {-}{}{}G}{17}{subsubsection.6.3.1.1}
\contentsline {subsubsection}{\numberline {6.3.1.2}C\discretionary {-}{}{}F\discretionary {-}{}{}G}{18}{subsubsection.6.3.1.2}
\contentsline {subsubsection}{\numberline {6.3.1.3}$\sim $\discretionary {-}{}{}C\discretionary {-}{}{}F\discretionary {-}{}{}G}{18}{subsubsection.6.3.1.3}
\contentsline {subsection}{\numberline {6.3.2}Member Function Documentation}{18}{subsection.6.3.2}
\contentsline {subsubsection}{\numberline {6.3.2.1}Chomsky}{18}{subsubsection.6.3.2.1}
\contentsline {subsubsection}{\numberline {6.3.2.2}find\discretionary {-}{}{}Prod}{20}{subsubsection.6.3.2.2}
\contentsline {subsubsection}{\numberline {6.3.2.3}get\discretionary {-}{}{}P}{20}{subsubsection.6.3.2.3}
\contentsline {subsubsection}{\numberline {6.3.2.4}get\discretionary {-}{}{}S}{20}{subsubsection.6.3.2.4}
\contentsline {subsubsection}{\numberline {6.3.2.5}get\discretionary {-}{}{}T}{20}{subsubsection.6.3.2.5}
\contentsline {subsubsection}{\numberline {6.3.2.6}get\discretionary {-}{}{}V}{20}{subsubsection.6.3.2.6}
\contentsline {subsubsection}{\numberline {6.3.2.7}in\discretionary {-}{}{}Variables}{20}{subsubsection.6.3.2.7}
\contentsline {subsubsection}{\numberline {6.3.2.8}is\discretionary {-}{}{}C\discretionary {-}{}{}F\discretionary {-}{}{}G}{21}{subsubsection.6.3.2.8}
\contentsline {subsubsection}{\numberline {6.3.2.9}L\discretionary {-}{}{}M\discretionary {-}{}{}Derivation}{22}{subsubsection.6.3.2.9}
\contentsline {subsubsection}{\numberline {6.3.2.10}print}{22}{subsubsection.6.3.2.10}
\contentsline {subsubsection}{\numberline {6.3.2.11}print\discretionary {-}{}{}To\discretionary {-}{}{}X\discretionary {-}{}{}M\discretionary {-}{}{}L}{22}{subsubsection.6.3.2.11}
\contentsline {subsubsection}{\numberline {6.3.2.12}properly\discretionary {-}{}{}Initialized}{23}{subsubsection.6.3.2.12}
\contentsline {subsubsection}{\numberline {6.3.2.13}R\discretionary {-}{}{}M\discretionary {-}{}{}Derivation}{23}{subsubsection.6.3.2.13}
\contentsline {subsubsection}{\numberline {6.3.2.14}set\discretionary {-}{}{}P}{24}{subsubsection.6.3.2.14}
\contentsline {subsubsection}{\numberline {6.3.2.15}set\discretionary {-}{}{}S}{24}{subsubsection.6.3.2.15}
\contentsline {subsubsection}{\numberline {6.3.2.16}set\discretionary {-}{}{}T}{24}{subsubsection.6.3.2.16}
\contentsline {subsubsection}{\numberline {6.3.2.17}set\discretionary {-}{}{}V}{24}{subsubsection.6.3.2.17}
\contentsline {subsubsection}{\numberline {6.3.2.18}string\discretionary {-}{}{}In\discretionary {-}{}{}Grammar}{24}{subsubsection.6.3.2.18}
\contentsline {section}{\numberline {6.4}mnb\discretionary {-}{}{}:\discretionary {-}{}{}:C\discretionary {-}{}{}F\discretionary {-}{}{}G\discretionary {-}{}{}Node Class Reference}{24}{section.6.4}
\contentsline {subsection}{\numberline {6.4.1}Constructor \& Destructor Documentation}{25}{subsection.6.4.1}
\contentsline {subsubsection}{\numberline {6.4.1.1}C\discretionary {-}{}{}F\discretionary {-}{}{}G\discretionary {-}{}{}Node}{25}{subsubsection.6.4.1.1}
\contentsline {subsection}{\numberline {6.4.2}Member Function Documentation}{25}{subsection.6.4.2}
\contentsline {subsubsection}{\numberline {6.4.2.1}addchild}{25}{subsubsection.6.4.2.1}
\contentsline {subsubsection}{\numberline {6.4.2.2}get\discretionary {-}{}{}Children}{25}{subsubsection.6.4.2.2}
\contentsline {subsubsection}{\numberline {6.4.2.3}get\discretionary {-}{}{}V}{25}{subsubsection.6.4.2.3}
\contentsline {subsubsection}{\numberline {6.4.2.4}is\discretionary {-}{}{}\_\discretionary {-}{}{}usefull}{25}{subsubsection.6.4.2.4}
\contentsline {subsubsection}{\numberline {6.4.2.5}set\discretionary {-}{}{}V}{25}{subsubsection.6.4.2.5}
\contentsline {section}{\numberline {6.5}mnb\discretionary {-}{}{}:\discretionary {-}{}{}:C\discretionary {-}{}{}O\discretionary {-}{}{}N\discretionary {-}{}{}V Class Reference}{26}{section.6.5}
\contentsline {subsection}{\numberline {6.5.1}Constructor \& Destructor Documentation}{26}{subsection.6.5.1}
\contentsline {subsubsection}{\numberline {6.5.1.1}C\discretionary {-}{}{}O\discretionary {-}{}{}N\discretionary {-}{}{}V}{26}{subsubsection.6.5.1.1}
\contentsline {subsubsection}{\numberline {6.5.1.2}$\sim $\discretionary {-}{}{}C\discretionary {-}{}{}O\discretionary {-}{}{}N\discretionary {-}{}{}V}{26}{subsubsection.6.5.1.2}
\contentsline {subsection}{\numberline {6.5.2}Member Function Documentation}{26}{subsection.6.5.2}
\contentsline {subsubsection}{\numberline {6.5.2.1}C\discretionary {-}{}{}F\discretionary {-}{}{}Gto\discretionary {-}{}{}P\discretionary {-}{}{}D\discretionary {-}{}{}A}{26}{subsubsection.6.5.2.1}
\contentsline {subsubsection}{\numberline {6.5.2.2}P\discretionary {-}{}{}D\discretionary {-}{}{}Ato\discretionary {-}{}{}C\discretionary {-}{}{}F\discretionary {-}{}{}G}{27}{subsubsection.6.5.2.2}
\contentsline {subsubsection}{\numberline {6.5.2.3}properly\discretionary {-}{}{}Initialized}{28}{subsubsection.6.5.2.3}
\contentsline {section}{\numberline {6.6}tinyxml2\discretionary {-}{}{}:\discretionary {-}{}{}:Dyn\discretionary {-}{}{}Array$<$ T, I\discretionary {-}{}{}N\discretionary {-}{}{}I\discretionary {-}{}{}T $>$ Class Template Reference}{28}{section.6.6}
\contentsline {subsection}{\numberline {6.6.1}Constructor \& Destructor Documentation}{29}{subsection.6.6.1}
\contentsline {subsubsection}{\numberline {6.6.1.1}Dyn\discretionary {-}{}{}Array}{29}{subsubsection.6.6.1.1}
\contentsline {subsubsection}{\numberline {6.6.1.2}$\sim $\discretionary {-}{}{}Dyn\discretionary {-}{}{}Array}{29}{subsubsection.6.6.1.2}
\contentsline {subsection}{\numberline {6.6.2}Member Function Documentation}{29}{subsection.6.6.2}
\contentsline {subsubsection}{\numberline {6.6.2.1}Capacity}{29}{subsubsection.6.6.2.1}
\contentsline {subsubsection}{\numberline {6.6.2.2}Empty}{29}{subsubsection.6.6.2.2}
\contentsline {subsubsection}{\numberline {6.6.2.3}Mem}{29}{subsubsection.6.6.2.3}
\contentsline {subsubsection}{\numberline {6.6.2.4}Mem}{29}{subsubsection.6.6.2.4}
\contentsline {subsubsection}{\numberline {6.6.2.5}operator[]}{30}{subsubsection.6.6.2.5}
\contentsline {subsubsection}{\numberline {6.6.2.6}operator[]}{30}{subsubsection.6.6.2.6}
\contentsline {subsubsection}{\numberline {6.6.2.7}Peek\discretionary {-}{}{}Top}{30}{subsubsection.6.6.2.7}
\contentsline {subsubsection}{\numberline {6.6.2.8}Pop}{30}{subsubsection.6.6.2.8}
\contentsline {subsubsection}{\numberline {6.6.2.9}Pop\discretionary {-}{}{}Arr}{30}{subsubsection.6.6.2.9}
\contentsline {subsubsection}{\numberline {6.6.2.10}Push}{30}{subsubsection.6.6.2.10}
\contentsline {subsubsection}{\numberline {6.6.2.11}Push\discretionary {-}{}{}Arr}{30}{subsubsection.6.6.2.11}
\contentsline {subsubsection}{\numberline {6.6.2.12}Size}{30}{subsubsection.6.6.2.12}
\contentsline {section}{\numberline {6.7}tinyxml2\discretionary {-}{}{}:\discretionary {-}{}{}:Entity Struct Reference}{31}{section.6.7}
\contentsline {subsection}{\numberline {6.7.1}Member Data Documentation}{31}{subsection.6.7.1}
\contentsline {subsubsection}{\numberline {6.7.1.1}length}{31}{subsubsection.6.7.1.1}
\contentsline {subsubsection}{\numberline {6.7.1.2}pattern}{31}{subsubsection.6.7.1.2}
\contentsline {subsubsection}{\numberline {6.7.1.3}value}{31}{subsubsection.6.7.1.3}
\contentsline {section}{\numberline {6.8}zkr\discretionary {-}{}{}:\discretionary {-}{}{}:cc\discretionary {-}{}{}:\discretionary {-}{}{}:fore Class Reference}{31}{section.6.8}
\contentsline {subsection}{\numberline {6.8.1}Member Data Documentation}{31}{subsection.6.8.1}
\contentsline {subsubsection}{\numberline {6.8.1.1}black}{31}{subsubsection.6.8.1.1}
\contentsline {subsubsection}{\numberline {6.8.1.2}blue}{31}{subsubsection.6.8.1.2}
\contentsline {subsubsection}{\numberline {6.8.1.3}console}{31}{subsubsection.6.8.1.3}
\contentsline {subsubsection}{\numberline {6.8.1.4}cyan}{32}{subsubsection.6.8.1.4}
\contentsline {subsubsection}{\numberline {6.8.1.5}green}{32}{subsubsection.6.8.1.5}
\contentsline {subsubsection}{\numberline {6.8.1.6}lightblack}{32}{subsubsection.6.8.1.6}
\contentsline {subsubsection}{\numberline {6.8.1.7}lightblue}{32}{subsubsection.6.8.1.7}
\contentsline {subsubsection}{\numberline {6.8.1.8}lightcyan}{32}{subsubsection.6.8.1.8}
\contentsline {subsubsection}{\numberline {6.8.1.9}lightgreen}{32}{subsubsection.6.8.1.9}
\contentsline {subsubsection}{\numberline {6.8.1.10}lightmagenta}{32}{subsubsection.6.8.1.10}
\contentsline {subsubsection}{\numberline {6.8.1.11}lightred}{32}{subsubsection.6.8.1.11}
\contentsline {subsubsection}{\numberline {6.8.1.12}lightwhite}{32}{subsubsection.6.8.1.12}
\contentsline {subsubsection}{\numberline {6.8.1.13}lightyellow}{32}{subsubsection.6.8.1.13}
\contentsline {subsubsection}{\numberline {6.8.1.14}magenta}{32}{subsubsection.6.8.1.14}
\contentsline {subsubsection}{\numberline {6.8.1.15}red}{32}{subsubsection.6.8.1.15}
\contentsline {subsubsection}{\numberline {6.8.1.16}white}{32}{subsubsection.6.8.1.16}
\contentsline {subsubsection}{\numberline {6.8.1.17}yellow}{32}{subsubsection.6.8.1.17}
\contentsline {section}{\numberline {6.9}tinyxml2\discretionary {-}{}{}:\discretionary {-}{}{}:Mem\discretionary {-}{}{}Pool Class Reference}{32}{section.6.9}
\contentsline {subsection}{\numberline {6.9.1}Constructor \& Destructor Documentation}{32}{subsection.6.9.1}
\contentsline {subsubsection}{\numberline {6.9.1.1}Mem\discretionary {-}{}{}Pool}{32}{subsubsection.6.9.1.1}
\contentsline {subsubsection}{\numberline {6.9.1.2}$\sim $\discretionary {-}{}{}Mem\discretionary {-}{}{}Pool}{33}{subsubsection.6.9.1.2}
\contentsline {subsection}{\numberline {6.9.2}Member Function Documentation}{33}{subsection.6.9.2}
\contentsline {subsubsection}{\numberline {6.9.2.1}Alloc}{33}{subsubsection.6.9.2.1}
\contentsline {subsubsection}{\numberline {6.9.2.2}Free}{33}{subsubsection.6.9.2.2}
\contentsline {subsubsection}{\numberline {6.9.2.3}Item\discretionary {-}{}{}Size}{33}{subsubsection.6.9.2.3}
\contentsline {subsubsection}{\numberline {6.9.2.4}Set\discretionary {-}{}{}Tracked}{33}{subsubsection.6.9.2.4}
\contentsline {section}{\numberline {6.10}tinyxml2\discretionary {-}{}{}:\discretionary {-}{}{}:Mem\discretionary {-}{}{}Pool\discretionary {-}{}{}T$<$ S\discretionary {-}{}{}I\discretionary {-}{}{}Z\discretionary {-}{}{}E $>$ Class Template Reference}{33}{section.6.10}
\contentsline {subsection}{\numberline {6.10.1}Member Enumeration Documentation}{34}{subsection.6.10.1}
\contentsline {subsubsection}{\numberline {6.10.1.1}anonymous enum}{34}{subsubsection.6.10.1.1}
\contentsline {subsection}{\numberline {6.10.2}Constructor \& Destructor Documentation}{34}{subsection.6.10.2}
\contentsline {subsubsection}{\numberline {6.10.2.1}Mem\discretionary {-}{}{}Pool\discretionary {-}{}{}T}{34}{subsubsection.6.10.2.1}
\contentsline {subsubsection}{\numberline {6.10.2.2}$\sim $\discretionary {-}{}{}Mem\discretionary {-}{}{}Pool\discretionary {-}{}{}T}{34}{subsubsection.6.10.2.2}
\contentsline {subsection}{\numberline {6.10.3}Member Function Documentation}{34}{subsection.6.10.3}
\contentsline {subsubsection}{\numberline {6.10.3.1}Alloc}{34}{subsubsection.6.10.3.1}
\contentsline {subsubsection}{\numberline {6.10.3.2}Current\discretionary {-}{}{}Allocs}{35}{subsubsection.6.10.3.2}
\contentsline {subsubsection}{\numberline {6.10.3.3}Free}{35}{subsubsection.6.10.3.3}
\contentsline {subsubsection}{\numberline {6.10.3.4}Item\discretionary {-}{}{}Size}{35}{subsubsection.6.10.3.4}
\contentsline {subsubsection}{\numberline {6.10.3.5}Set\discretionary {-}{}{}Tracked}{35}{subsubsection.6.10.3.5}
\contentsline {subsubsection}{\numberline {6.10.3.6}Trace}{35}{subsubsection.6.10.3.6}
\contentsline {subsubsection}{\numberline {6.10.3.7}Untracked}{35}{subsubsection.6.10.3.7}
\contentsline {section}{\numberline {6.11}mnb\discretionary {-}{}{}:\discretionary {-}{}{}:Node Class Reference}{36}{section.6.11}
\contentsline {subsection}{\numberline {6.11.1}Member Function Documentation}{36}{subsection.6.11.1}
\contentsline {subsubsection}{\numberline {6.11.1.1}addchild}{36}{subsubsection.6.11.1.1}
\contentsline {subsubsection}{\numberline {6.11.1.2}childeren}{36}{subsubsection.6.11.1.2}
\contentsline {subsubsection}{\numberline {6.11.1.3}set\discretionary {-}{}{}State}{36}{subsubsection.6.11.1.3}
\contentsline {section}{\numberline {6.12}mnb\discretionary {-}{}{}:\discretionary {-}{}{}:P\discretionary {-}{}{}D\discretionary {-}{}{}A Class Reference}{36}{section.6.12}
\contentsline {subsection}{\numberline {6.12.1}Constructor \& Destructor Documentation}{37}{subsection.6.12.1}
\contentsline {subsubsection}{\numberline {6.12.1.1}P\discretionary {-}{}{}D\discretionary {-}{}{}A}{37}{subsubsection.6.12.1.1}
\contentsline {subsubsection}{\numberline {6.12.1.2}P\discretionary {-}{}{}D\discretionary {-}{}{}A}{37}{subsubsection.6.12.1.2}
\contentsline {subsubsection}{\numberline {6.12.1.3}$\sim $\discretionary {-}{}{}P\discretionary {-}{}{}D\discretionary {-}{}{}A}{37}{subsubsection.6.12.1.3}
\contentsline {subsection}{\numberline {6.12.2}Member Function Documentation}{37}{subsection.6.12.2}
\contentsline {subsubsection}{\numberline {6.12.2.1}get\discretionary {-}{}{}E}{37}{subsubsection.6.12.2.1}
\contentsline {subsubsection}{\numberline {6.12.2.2}get\discretionary {-}{}{}F}{37}{subsubsection.6.12.2.2}
\contentsline {subsubsection}{\numberline {6.12.2.3}get\discretionary {-}{}{}Q}{38}{subsubsection.6.12.2.3}
\contentsline {subsubsection}{\numberline {6.12.2.4}get\discretionary {-}{}{}Q0}{38}{subsubsection.6.12.2.4}
\contentsline {subsubsection}{\numberline {6.12.2.5}get\discretionary {-}{}{}S}{38}{subsubsection.6.12.2.5}
\contentsline {subsubsection}{\numberline {6.12.2.6}get\discretionary {-}{}{}T}{38}{subsubsection.6.12.2.6}
\contentsline {subsubsection}{\numberline {6.12.2.7}get\discretionary {-}{}{}Z0}{38}{subsubsection.6.12.2.7}
\contentsline {subsubsection}{\numberline {6.12.2.8}is\discretionary {-}{}{}P\discretionary {-}{}{}D\discretionary {-}{}{}A}{38}{subsubsection.6.12.2.8}
\contentsline {subsubsection}{\numberline {6.12.2.9}print\discretionary {-}{}{}To\discretionary {-}{}{}D\discretionary {-}{}{}O\discretionary {-}{}{}T}{39}{subsubsection.6.12.2.9}
\contentsline {subsubsection}{\numberline {6.12.2.10}print\discretionary {-}{}{}To\discretionary {-}{}{}X\discretionary {-}{}{}M\discretionary {-}{}{}L}{41}{subsubsection.6.12.2.10}
\contentsline {subsubsection}{\numberline {6.12.2.11}properly\discretionary {-}{}{}Initialized}{42}{subsubsection.6.12.2.11}
\contentsline {subsubsection}{\numberline {6.12.2.12}set\discretionary {-}{}{}E}{42}{subsubsection.6.12.2.12}
\contentsline {subsubsection}{\numberline {6.12.2.13}set\discretionary {-}{}{}F}{42}{subsubsection.6.12.2.13}
\contentsline {subsubsection}{\numberline {6.12.2.14}set\discretionary {-}{}{}Q}{42}{subsubsection.6.12.2.14}
\contentsline {subsubsection}{\numberline {6.12.2.15}set\discretionary {-}{}{}Q0}{42}{subsubsection.6.12.2.15}
\contentsline {subsubsection}{\numberline {6.12.2.16}set\discretionary {-}{}{}S}{42}{subsubsection.6.12.2.16}
\contentsline {subsubsection}{\numberline {6.12.2.17}set\discretionary {-}{}{}T}{43}{subsubsection.6.12.2.17}
\contentsline {subsubsection}{\numberline {6.12.2.18}set\discretionary {-}{}{}Z0}{43}{subsubsection.6.12.2.18}
\contentsline {subsubsection}{\numberline {6.12.2.19}simulate}{43}{subsubsection.6.12.2.19}
\contentsline {subsubsection}{\numberline {6.12.2.20}transition\discretionary {-}{}{}To\discretionary {-}{}{}Table}{44}{subsubsection.6.12.2.20}
\contentsline {section}{\numberline {6.13}mnb\discretionary {-}{}{}:\discretionary {-}{}{}:P\discretionary {-}{}{}D\discretionary {-}{}{}A\discretionary {-}{}{}Simulation Class Reference}{46}{section.6.13}
\contentsline {subsection}{\numberline {6.13.1}Member Function Documentation}{47}{subsection.6.13.1}
\contentsline {subsubsection}{\numberline {6.13.1.1}operator!=}{47}{subsubsection.6.13.1.1}
\contentsline {subsubsection}{\numberline {6.13.1.2}operator==}{47}{subsubsection.6.13.1.2}
\contentsline {subsubsection}{\numberline {6.13.1.3}stack\discretionary {-}{}{}To\discretionary {-}{}{}String}{47}{subsubsection.6.13.1.3}
\contentsline {subsubsection}{\numberline {6.13.1.4}to\discretionary {-}{}{}String}{47}{subsubsection.6.13.1.4}
\contentsline {subsection}{\numberline {6.13.2}Member Data Documentation}{47}{subsection.6.13.2}
\contentsline {subsubsection}{\numberline {6.13.2.1}current\discretionary {-}{}{}State}{47}{subsubsection.6.13.2.1}
\contentsline {subsubsection}{\numberline {6.13.2.2}input}{47}{subsubsection.6.13.2.2}
\contentsline {subsubsection}{\numberline {6.13.2.3}stack}{47}{subsubsection.6.13.2.3}
\contentsline {section}{\numberline {6.14}tinyxml2\discretionary {-}{}{}:\discretionary {-}{}{}:Str\discretionary {-}{}{}Pair Class Reference}{47}{section.6.14}
\contentsline {subsection}{\numberline {6.14.1}Member Enumeration Documentation}{48}{subsection.6.14.1}
\contentsline {subsubsection}{\numberline {6.14.1.1}anonymous enum}{48}{subsubsection.6.14.1.1}
\contentsline {subsection}{\numberline {6.14.2}Constructor \& Destructor Documentation}{48}{subsection.6.14.2}
\contentsline {subsubsection}{\numberline {6.14.2.1}Str\discretionary {-}{}{}Pair}{48}{subsubsection.6.14.2.1}
\contentsline {subsubsection}{\numberline {6.14.2.2}$\sim $\discretionary {-}{}{}Str\discretionary {-}{}{}Pair}{49}{subsubsection.6.14.2.2}
\contentsline {subsection}{\numberline {6.14.3}Member Function Documentation}{49}{subsection.6.14.3}
\contentsline {subsubsection}{\numberline {6.14.3.1}Empty}{49}{subsubsection.6.14.3.1}
\contentsline {subsubsection}{\numberline {6.14.3.2}Get\discretionary {-}{}{}Str}{49}{subsubsection.6.14.3.2}
\contentsline {subsubsection}{\numberline {6.14.3.3}Parse\discretionary {-}{}{}Name}{50}{subsubsection.6.14.3.3}
\contentsline {subsubsection}{\numberline {6.14.3.4}Parse\discretionary {-}{}{}Text}{50}{subsubsection.6.14.3.4}
\contentsline {subsubsection}{\numberline {6.14.3.5}Set}{50}{subsubsection.6.14.3.5}
\contentsline {subsubsection}{\numberline {6.14.3.6}Set\discretionary {-}{}{}Interned\discretionary {-}{}{}Str}{51}{subsubsection.6.14.3.6}
\contentsline {subsubsection}{\numberline {6.14.3.7}Set\discretionary {-}{}{}Str}{51}{subsubsection.6.14.3.7}
\contentsline {section}{\numberline {6.15}mnb\discretionary {-}{}{}:\discretionary {-}{}{}:Triple$<$ T $>$ Class Template Reference}{51}{section.6.15}
\contentsline {subsection}{\numberline {6.15.1}Constructor \& Destructor Documentation}{51}{subsection.6.15.1}
\contentsline {subsubsection}{\numberline {6.15.1.1}Triple}{51}{subsubsection.6.15.1.1}
\contentsline {subsubsection}{\numberline {6.15.1.2}Triple}{51}{subsubsection.6.15.1.2}
\contentsline {subsubsection}{\numberline {6.15.1.3}$\sim $\discretionary {-}{}{}Triple}{52}{subsubsection.6.15.1.3}
\contentsline {subsection}{\numberline {6.15.2}Member Function Documentation}{52}{subsection.6.15.2}
\contentsline {subsubsection}{\numberline {6.15.2.1}add}{52}{subsubsection.6.15.2.1}
\contentsline {subsubsection}{\numberline {6.15.2.2}clear}{52}{subsubsection.6.15.2.2}
\contentsline {subsubsection}{\numberline {6.15.2.3}first}{52}{subsubsection.6.15.2.3}
\contentsline {subsubsection}{\numberline {6.15.2.4}operator$<$}{52}{subsubsection.6.15.2.4}
\contentsline {subsubsection}{\numberline {6.15.2.5}second}{52}{subsubsection.6.15.2.5}
\contentsline {subsubsection}{\numberline {6.15.2.6}thirth}{52}{subsubsection.6.15.2.6}
\contentsline {subsubsection}{\numberline {6.15.2.7}to\discretionary {-}{}{}String}{53}{subsubsection.6.15.2.7}
\contentsline {section}{\numberline {6.16}mnb\discretionary {-}{}{}:\discretionary {-}{}{}:Tuple$<$ T $>$ Class Template Reference}{53}{section.6.16}
\contentsline {subsection}{\numberline {6.16.1}Constructor \& Destructor Documentation}{53}{subsection.6.16.1}
\contentsline {subsubsection}{\numberline {6.16.1.1}Tuple}{53}{subsubsection.6.16.1.1}
\contentsline {subsubsection}{\numberline {6.16.1.2}Tuple}{53}{subsubsection.6.16.1.2}
\contentsline {subsubsection}{\numberline {6.16.1.3}$\sim $\discretionary {-}{}{}Tuple}{53}{subsubsection.6.16.1.3}
\contentsline {subsection}{\numberline {6.16.2}Member Function Documentation}{53}{subsection.6.16.2}
\contentsline {subsubsection}{\numberline {6.16.2.1}add}{53}{subsubsection.6.16.2.1}
\contentsline {subsubsection}{\numberline {6.16.2.2}clear}{54}{subsubsection.6.16.2.2}
\contentsline {subsubsection}{\numberline {6.16.2.3}first}{54}{subsubsection.6.16.2.3}
\contentsline {subsubsection}{\numberline {6.16.2.4}operator$<$}{54}{subsubsection.6.16.2.4}
\contentsline {subsubsection}{\numberline {6.16.2.5}second}{54}{subsubsection.6.16.2.5}
\contentsline {subsubsection}{\numberline {6.16.2.6}to\discretionary {-}{}{}String}{54}{subsubsection.6.16.2.6}
\contentsline {section}{\numberline {6.17}mnb\discretionary {-}{}{}:\discretionary {-}{}{}:Verbose Class Reference}{54}{section.6.17}
\contentsline {subsection}{\numberline {6.17.1}Constructor \& Destructor Documentation}{55}{subsection.6.17.1}
\contentsline {subsubsection}{\numberline {6.17.1.1}$\sim $\discretionary {-}{}{}Verbose}{55}{subsubsection.6.17.1.1}
\contentsline {subsection}{\numberline {6.17.2}Member Function Documentation}{55}{subsection.6.17.2}
\contentsline {subsubsection}{\numberline {6.17.2.1}add\discretionary {-}{}{}Function}{55}{subsubsection.6.17.2.1}
\contentsline {subsubsection}{\numberline {6.17.2.2}close\discretionary {-}{}{}Current\discretionary {-}{}{}Function}{55}{subsubsection.6.17.2.2}
\contentsline {subsubsection}{\numberline {6.17.2.3}comment}{55}{subsubsection.6.17.2.3}
\contentsline {subsubsection}{\numberline {6.17.2.4}error}{55}{subsubsection.6.17.2.4}
\contentsline {subsubsection}{\numberline {6.17.2.5}error}{56}{subsubsection.6.17.2.5}
\contentsline {subsubsection}{\numberline {6.17.2.6}instance}{56}{subsubsection.6.17.2.6}
\contentsline {subsubsection}{\numberline {6.17.2.7}is\discretionary {-}{}{}Verbose}{56}{subsubsection.6.17.2.7}
\contentsline {subsubsection}{\numberline {6.17.2.8}operator++}{56}{subsubsection.6.17.2.8}
\contentsline {subsubsection}{\numberline {6.17.2.9}operator-\/-\/}{56}{subsubsection.6.17.2.9}
\contentsline {section}{\numberline {6.18}tinyxml2\discretionary {-}{}{}:\discretionary {-}{}{}:X\discretionary {-}{}{}M\discretionary {-}{}{}L\discretionary {-}{}{}Attribute Class Reference}{56}{section.6.18}
\contentsline {subsection}{\numberline {6.18.1}Detailed Description}{57}{subsection.6.18.1}
\contentsline {subsection}{\numberline {6.18.2}Member Function Documentation}{58}{subsection.6.18.2}
\contentsline {subsubsection}{\numberline {6.18.2.1}Bool\discretionary {-}{}{}Value}{58}{subsubsection.6.18.2.1}
\contentsline {subsubsection}{\numberline {6.18.2.2}Double\discretionary {-}{}{}Value}{58}{subsubsection.6.18.2.2}
\contentsline {subsubsection}{\numberline {6.18.2.3}Float\discretionary {-}{}{}Value}{58}{subsubsection.6.18.2.3}
\contentsline {subsubsection}{\numberline {6.18.2.4}Int\discretionary {-}{}{}Value}{58}{subsubsection.6.18.2.4}
\contentsline {subsubsection}{\numberline {6.18.2.5}Name}{58}{subsubsection.6.18.2.5}
\contentsline {subsubsection}{\numberline {6.18.2.6}Next}{58}{subsubsection.6.18.2.6}
\contentsline {subsubsection}{\numberline {6.18.2.7}Query\discretionary {-}{}{}Bool\discretionary {-}{}{}Value}{59}{subsubsection.6.18.2.7}
\contentsline {subsubsection}{\numberline {6.18.2.8}Query\discretionary {-}{}{}Double\discretionary {-}{}{}Value}{59}{subsubsection.6.18.2.8}
\contentsline {subsubsection}{\numberline {6.18.2.9}Query\discretionary {-}{}{}Float\discretionary {-}{}{}Value}{59}{subsubsection.6.18.2.9}
\contentsline {subsubsection}{\numberline {6.18.2.10}Query\discretionary {-}{}{}Int\discretionary {-}{}{}Value}{59}{subsubsection.6.18.2.10}
\contentsline {subsubsection}{\numberline {6.18.2.11}Query\discretionary {-}{}{}Unsigned\discretionary {-}{}{}Value}{59}{subsubsection.6.18.2.11}
\contentsline {subsubsection}{\numberline {6.18.2.12}Set\discretionary {-}{}{}Attribute}{60}{subsubsection.6.18.2.12}
\contentsline {subsubsection}{\numberline {6.18.2.13}Set\discretionary {-}{}{}Attribute}{60}{subsubsection.6.18.2.13}
\contentsline {subsubsection}{\numberline {6.18.2.14}Set\discretionary {-}{}{}Attribute}{60}{subsubsection.6.18.2.14}
\contentsline {subsubsection}{\numberline {6.18.2.15}Set\discretionary {-}{}{}Attribute}{60}{subsubsection.6.18.2.15}
\contentsline {subsubsection}{\numberline {6.18.2.16}Set\discretionary {-}{}{}Attribute}{60}{subsubsection.6.18.2.16}
\contentsline {subsubsection}{\numberline {6.18.2.17}Set\discretionary {-}{}{}Attribute}{61}{subsubsection.6.18.2.17}
\contentsline {subsubsection}{\numberline {6.18.2.18}Unsigned\discretionary {-}{}{}Value}{61}{subsubsection.6.18.2.18}
\contentsline {subsubsection}{\numberline {6.18.2.19}Value}{61}{subsubsection.6.18.2.19}
\contentsline {subsection}{\numberline {6.18.3}Friends And Related Function Documentation}{61}{subsection.6.18.3}
\contentsline {subsubsection}{\numberline {6.18.3.1}X\discretionary {-}{}{}M\discretionary {-}{}{}L\discretionary {-}{}{}Element}{61}{subsubsection.6.18.3.1}
\contentsline {section}{\numberline {6.19}tinyxml2\discretionary {-}{}{}:\discretionary {-}{}{}:X\discretionary {-}{}{}M\discretionary {-}{}{}L\discretionary {-}{}{}Comment Class Reference}{61}{section.6.19}
\contentsline {subsection}{\numberline {6.19.1}Detailed Description}{62}{subsection.6.19.1}
\contentsline {subsection}{\numberline {6.19.2}Constructor \& Destructor Documentation}{62}{subsection.6.19.2}
\contentsline {subsubsection}{\numberline {6.19.2.1}X\discretionary {-}{}{}M\discretionary {-}{}{}L\discretionary {-}{}{}Comment}{62}{subsubsection.6.19.2.1}
\contentsline {subsubsection}{\numberline {6.19.2.2}$\sim $\discretionary {-}{}{}X\discretionary {-}{}{}M\discretionary {-}{}{}L\discretionary {-}{}{}Comment}{62}{subsubsection.6.19.2.2}
\contentsline {subsubsection}{\numberline {6.19.2.3}X\discretionary {-}{}{}M\discretionary {-}{}{}L\discretionary {-}{}{}Comment}{62}{subsubsection.6.19.2.3}
\contentsline {subsection}{\numberline {6.19.3}Member Function Documentation}{62}{subsection.6.19.3}
\contentsline {subsubsection}{\numberline {6.19.3.1}Accept}{62}{subsubsection.6.19.3.1}
\contentsline {subsubsection}{\numberline {6.19.3.2}operator=}{63}{subsubsection.6.19.3.2}
\contentsline {subsubsection}{\numberline {6.19.3.3}Parse\discretionary {-}{}{}Deep}{63}{subsubsection.6.19.3.3}
\contentsline {subsubsection}{\numberline {6.19.3.4}Shallow\discretionary {-}{}{}Clone}{63}{subsubsection.6.19.3.4}
\contentsline {subsubsection}{\numberline {6.19.3.5}Shallow\discretionary {-}{}{}Equal}{63}{subsubsection.6.19.3.5}
\contentsline {subsubsection}{\numberline {6.19.3.6}To\discretionary {-}{}{}Comment}{64}{subsubsection.6.19.3.6}
\contentsline {subsubsection}{\numberline {6.19.3.7}To\discretionary {-}{}{}Comment}{64}{subsubsection.6.19.3.7}
\contentsline {subsection}{\numberline {6.19.4}Friends And Related Function Documentation}{64}{subsection.6.19.4}
\contentsline {subsubsection}{\numberline {6.19.4.1}X\discretionary {-}{}{}M\discretionary {-}{}{}L\discretionary {-}{}{}Document}{64}{subsubsection.6.19.4.1}
\contentsline {section}{\numberline {6.20}tinyxml2\discretionary {-}{}{}:\discretionary {-}{}{}:X\discretionary {-}{}{}M\discretionary {-}{}{}L\discretionary {-}{}{}Const\discretionary {-}{}{}Handle Class Reference}{64}{section.6.20}
\contentsline {subsection}{\numberline {6.20.1}Detailed Description}{65}{subsection.6.20.1}
\contentsline {subsection}{\numberline {6.20.2}Constructor \& Destructor Documentation}{65}{subsection.6.20.2}
\contentsline {subsubsection}{\numberline {6.20.2.1}X\discretionary {-}{}{}M\discretionary {-}{}{}L\discretionary {-}{}{}Const\discretionary {-}{}{}Handle}{65}{subsubsection.6.20.2.1}
\contentsline {subsubsection}{\numberline {6.20.2.2}X\discretionary {-}{}{}M\discretionary {-}{}{}L\discretionary {-}{}{}Const\discretionary {-}{}{}Handle}{65}{subsubsection.6.20.2.2}
\contentsline {subsubsection}{\numberline {6.20.2.3}X\discretionary {-}{}{}M\discretionary {-}{}{}L\discretionary {-}{}{}Const\discretionary {-}{}{}Handle}{65}{subsubsection.6.20.2.3}
\contentsline {subsection}{\numberline {6.20.3}Member Function Documentation}{65}{subsection.6.20.3}
\contentsline {subsubsection}{\numberline {6.20.3.1}First\discretionary {-}{}{}Child}{65}{subsubsection.6.20.3.1}
\contentsline {subsubsection}{\numberline {6.20.3.2}First\discretionary {-}{}{}Child\discretionary {-}{}{}Element}{65}{subsubsection.6.20.3.2}
\contentsline {subsubsection}{\numberline {6.20.3.3}Last\discretionary {-}{}{}Child}{65}{subsubsection.6.20.3.3}
\contentsline {subsubsection}{\numberline {6.20.3.4}Last\discretionary {-}{}{}Child\discretionary {-}{}{}Element}{65}{subsubsection.6.20.3.4}
\contentsline {subsubsection}{\numberline {6.20.3.5}Next\discretionary {-}{}{}Sibling}{66}{subsubsection.6.20.3.5}
\contentsline {subsubsection}{\numberline {6.20.3.6}Next\discretionary {-}{}{}Sibling\discretionary {-}{}{}Element}{66}{subsubsection.6.20.3.6}
\contentsline {subsubsection}{\numberline {6.20.3.7}operator=}{66}{subsubsection.6.20.3.7}
\contentsline {subsubsection}{\numberline {6.20.3.8}Previous\discretionary {-}{}{}Sibling}{66}{subsubsection.6.20.3.8}
\contentsline {subsubsection}{\numberline {6.20.3.9}Previous\discretionary {-}{}{}Sibling\discretionary {-}{}{}Element}{66}{subsubsection.6.20.3.9}
\contentsline {subsubsection}{\numberline {6.20.3.10}To\discretionary {-}{}{}Declaration}{66}{subsubsection.6.20.3.10}
\contentsline {subsubsection}{\numberline {6.20.3.11}To\discretionary {-}{}{}Element}{66}{subsubsection.6.20.3.11}
\contentsline {subsubsection}{\numberline {6.20.3.12}To\discretionary {-}{}{}Node}{66}{subsubsection.6.20.3.12}
\contentsline {subsubsection}{\numberline {6.20.3.13}To\discretionary {-}{}{}Text}{67}{subsubsection.6.20.3.13}
\contentsline {subsubsection}{\numberline {6.20.3.14}To\discretionary {-}{}{}Unknown}{67}{subsubsection.6.20.3.14}
\contentsline {section}{\numberline {6.21}tinyxml2\discretionary {-}{}{}:\discretionary {-}{}{}:X\discretionary {-}{}{}M\discretionary {-}{}{}L\discretionary {-}{}{}Declaration Class Reference}{67}{section.6.21}
\contentsline {subsection}{\numberline {6.21.1}Detailed Description}{67}{subsection.6.21.1}
\contentsline {subsection}{\numberline {6.21.2}Constructor \& Destructor Documentation}{68}{subsection.6.21.2}
\contentsline {subsubsection}{\numberline {6.21.2.1}X\discretionary {-}{}{}M\discretionary {-}{}{}L\discretionary {-}{}{}Declaration}{68}{subsubsection.6.21.2.1}
\contentsline {subsubsection}{\numberline {6.21.2.2}$\sim $\discretionary {-}{}{}X\discretionary {-}{}{}M\discretionary {-}{}{}L\discretionary {-}{}{}Declaration}{68}{subsubsection.6.21.2.2}
\contentsline {subsubsection}{\numberline {6.21.2.3}X\discretionary {-}{}{}M\discretionary {-}{}{}L\discretionary {-}{}{}Declaration}{68}{subsubsection.6.21.2.3}
\contentsline {subsection}{\numberline {6.21.3}Member Function Documentation}{68}{subsection.6.21.3}
\contentsline {subsubsection}{\numberline {6.21.3.1}Accept}{68}{subsubsection.6.21.3.1}
\contentsline {subsubsection}{\numberline {6.21.3.2}operator=}{68}{subsubsection.6.21.3.2}
\contentsline {subsubsection}{\numberline {6.21.3.3}Parse\discretionary {-}{}{}Deep}{68}{subsubsection.6.21.3.3}
\contentsline {subsubsection}{\numberline {6.21.3.4}Shallow\discretionary {-}{}{}Clone}{69}{subsubsection.6.21.3.4}
\contentsline {subsubsection}{\numberline {6.21.3.5}Shallow\discretionary {-}{}{}Equal}{69}{subsubsection.6.21.3.5}
\contentsline {subsubsection}{\numberline {6.21.3.6}To\discretionary {-}{}{}Declaration}{69}{subsubsection.6.21.3.6}
\contentsline {subsubsection}{\numberline {6.21.3.7}To\discretionary {-}{}{}Declaration}{69}{subsubsection.6.21.3.7}
\contentsline {subsection}{\numberline {6.21.4}Friends And Related Function Documentation}{70}{subsection.6.21.4}
\contentsline {subsubsection}{\numberline {6.21.4.1}X\discretionary {-}{}{}M\discretionary {-}{}{}L\discretionary {-}{}{}Document}{70}{subsubsection.6.21.4.1}
\contentsline {section}{\numberline {6.22}tinyxml2\discretionary {-}{}{}:\discretionary {-}{}{}:X\discretionary {-}{}{}M\discretionary {-}{}{}L\discretionary {-}{}{}Document Class Reference}{70}{section.6.22}
\contentsline {subsection}{\numberline {6.22.1}Detailed Description}{71}{subsection.6.22.1}
\contentsline {subsection}{\numberline {6.22.2}Constructor \& Destructor Documentation}{71}{subsection.6.22.2}
\contentsline {subsubsection}{\numberline {6.22.2.1}X\discretionary {-}{}{}M\discretionary {-}{}{}L\discretionary {-}{}{}Document}{71}{subsubsection.6.22.2.1}
\contentsline {subsubsection}{\numberline {6.22.2.2}$\sim $\discretionary {-}{}{}X\discretionary {-}{}{}M\discretionary {-}{}{}L\discretionary {-}{}{}Document}{71}{subsubsection.6.22.2.2}
\contentsline {subsection}{\numberline {6.22.3}Member Function Documentation}{72}{subsection.6.22.3}
\contentsline {subsubsection}{\numberline {6.22.3.1}Accept}{72}{subsubsection.6.22.3.1}
\contentsline {subsubsection}{\numberline {6.22.3.2}Clear}{72}{subsubsection.6.22.3.2}
\contentsline {subsubsection}{\numberline {6.22.3.3}Delete\discretionary {-}{}{}Node}{72}{subsubsection.6.22.3.3}
\contentsline {subsubsection}{\numberline {6.22.3.4}Error}{73}{subsubsection.6.22.3.4}
\contentsline {subsubsection}{\numberline {6.22.3.5}Error\discretionary {-}{}{}I\discretionary {-}{}{}D}{73}{subsubsection.6.22.3.5}
\contentsline {subsubsection}{\numberline {6.22.3.6}file\discretionary {-}{}{}Exists}{73}{subsubsection.6.22.3.6}
\contentsline {subsubsection}{\numberline {6.22.3.7}Get\discretionary {-}{}{}Error\discretionary {-}{}{}Str1}{73}{subsubsection.6.22.3.7}
\contentsline {subsubsection}{\numberline {6.22.3.8}Get\discretionary {-}{}{}Error\discretionary {-}{}{}Str2}{73}{subsubsection.6.22.3.8}
\contentsline {subsubsection}{\numberline {6.22.3.9}Has\discretionary {-}{}{}B\discretionary {-}{}{}O\discretionary {-}{}{}M}{73}{subsubsection.6.22.3.9}
\contentsline {subsubsection}{\numberline {6.22.3.10}Identify}{74}{subsubsection.6.22.3.10}
\contentsline {subsubsection}{\numberline {6.22.3.11}Load\discretionary {-}{}{}File}{75}{subsubsection.6.22.3.11}
\contentsline {subsubsection}{\numberline {6.22.3.12}Load\discretionary {-}{}{}File}{75}{subsubsection.6.22.3.12}
\contentsline {subsubsection}{\numberline {6.22.3.13}New\discretionary {-}{}{}Comment}{75}{subsubsection.6.22.3.13}
\contentsline {subsubsection}{\numberline {6.22.3.14}New\discretionary {-}{}{}Declaration}{76}{subsubsection.6.22.3.14}
\contentsline {subsubsection}{\numberline {6.22.3.15}New\discretionary {-}{}{}Element}{76}{subsubsection.6.22.3.15}
\contentsline {subsubsection}{\numberline {6.22.3.16}New\discretionary {-}{}{}Text}{76}{subsubsection.6.22.3.16}
\contentsline {subsubsection}{\numberline {6.22.3.17}New\discretionary {-}{}{}Unknown}{76}{subsubsection.6.22.3.17}
\contentsline {subsubsection}{\numberline {6.22.3.18}Parse}{77}{subsubsection.6.22.3.18}
\contentsline {subsubsection}{\numberline {6.22.3.19}Print}{77}{subsubsection.6.22.3.19}
\contentsline {subsubsection}{\numberline {6.22.3.20}Print\discretionary {-}{}{}Error}{77}{subsubsection.6.22.3.20}
\contentsline {subsubsection}{\numberline {6.22.3.21}Process\discretionary {-}{}{}Entities}{78}{subsubsection.6.22.3.21}
\contentsline {subsubsection}{\numberline {6.22.3.22}Root\discretionary {-}{}{}Element}{78}{subsubsection.6.22.3.22}
\contentsline {subsubsection}{\numberline {6.22.3.23}Root\discretionary {-}{}{}Element}{78}{subsubsection.6.22.3.23}
\contentsline {subsubsection}{\numberline {6.22.3.24}Save\discretionary {-}{}{}File}{78}{subsubsection.6.22.3.24}
\contentsline {subsubsection}{\numberline {6.22.3.25}Save\discretionary {-}{}{}File}{79}{subsubsection.6.22.3.25}
\contentsline {subsubsection}{\numberline {6.22.3.26}Set\discretionary {-}{}{}B\discretionary {-}{}{}O\discretionary {-}{}{}M}{79}{subsubsection.6.22.3.26}
\contentsline {subsubsection}{\numberline {6.22.3.27}Set\discretionary {-}{}{}Error}{79}{subsubsection.6.22.3.27}
\contentsline {subsubsection}{\numberline {6.22.3.28}Shallow\discretionary {-}{}{}Clone}{79}{subsubsection.6.22.3.28}
\contentsline {subsubsection}{\numberline {6.22.3.29}Shallow\discretionary {-}{}{}Equal}{79}{subsubsection.6.22.3.29}
\contentsline {subsubsection}{\numberline {6.22.3.30}To\discretionary {-}{}{}Document}{80}{subsubsection.6.22.3.30}
\contentsline {subsubsection}{\numberline {6.22.3.31}To\discretionary {-}{}{}Document}{80}{subsubsection.6.22.3.31}
\contentsline {subsubsection}{\numberline {6.22.3.32}Whitespace\discretionary {-}{}{}Mode}{80}{subsubsection.6.22.3.32}
\contentsline {subsection}{\numberline {6.22.4}Friends And Related Function Documentation}{80}{subsection.6.22.4}
\contentsline {subsubsection}{\numberline {6.22.4.1}X\discretionary {-}{}{}M\discretionary {-}{}{}L\discretionary {-}{}{}Element}{80}{subsubsection.6.22.4.1}
\contentsline {section}{\numberline {6.23}tinyxml2\discretionary {-}{}{}:\discretionary {-}{}{}:X\discretionary {-}{}{}M\discretionary {-}{}{}L\discretionary {-}{}{}Element Class Reference}{80}{section.6.23}
\contentsline {subsection}{\numberline {6.23.1}Detailed Description}{82}{subsection.6.23.1}
\contentsline {subsection}{\numberline {6.23.2}Member Enumeration Documentation}{82}{subsection.6.23.2}
\contentsline {subsubsection}{\numberline {6.23.2.1}anonymous enum}{82}{subsubsection.6.23.2.1}
\contentsline {subsection}{\numberline {6.23.3}Member Function Documentation}{82}{subsection.6.23.3}
\contentsline {subsubsection}{\numberline {6.23.3.1}Accept}{82}{subsubsection.6.23.3.1}
\contentsline {subsubsection}{\numberline {6.23.3.2}Attribute}{83}{subsubsection.6.23.3.2}
\contentsline {subsubsection}{\numberline {6.23.3.3}Bool\discretionary {-}{}{}Attribute}{83}{subsubsection.6.23.3.3}
\contentsline {subsubsection}{\numberline {6.23.3.4}Closing\discretionary {-}{}{}Type}{83}{subsubsection.6.23.3.4}
\contentsline {subsubsection}{\numberline {6.23.3.5}Delete\discretionary {-}{}{}Attribute}{83}{subsubsection.6.23.3.5}
\contentsline {subsubsection}{\numberline {6.23.3.6}Double\discretionary {-}{}{}Attribute}{84}{subsubsection.6.23.3.6}
\contentsline {subsubsection}{\numberline {6.23.3.7}Find\discretionary {-}{}{}Attribute}{84}{subsubsection.6.23.3.7}
\contentsline {subsubsection}{\numberline {6.23.3.8}First\discretionary {-}{}{}Attribute}{84}{subsubsection.6.23.3.8}
\contentsline {subsubsection}{\numberline {6.23.3.9}Float\discretionary {-}{}{}Attribute}{84}{subsubsection.6.23.3.9}
\contentsline {subsubsection}{\numberline {6.23.3.10}Get\discretionary {-}{}{}Text}{85}{subsubsection.6.23.3.10}
\contentsline {subsubsection}{\numberline {6.23.3.11}Int\discretionary {-}{}{}Attribute}{85}{subsubsection.6.23.3.11}
\contentsline {subsubsection}{\numberline {6.23.3.12}Name}{85}{subsubsection.6.23.3.12}
\contentsline {subsubsection}{\numberline {6.23.3.13}Parse\discretionary {-}{}{}Deep}{85}{subsubsection.6.23.3.13}
\contentsline {subsubsection}{\numberline {6.23.3.14}Query\discretionary {-}{}{}Attribute}{86}{subsubsection.6.23.3.14}
\contentsline {subsubsection}{\numberline {6.23.3.15}Query\discretionary {-}{}{}Attribute}{86}{subsubsection.6.23.3.15}
\contentsline {subsubsection}{\numberline {6.23.3.16}Query\discretionary {-}{}{}Attribute}{86}{subsubsection.6.23.3.16}
\contentsline {subsubsection}{\numberline {6.23.3.17}Query\discretionary {-}{}{}Attribute}{86}{subsubsection.6.23.3.17}
\contentsline {subsubsection}{\numberline {6.23.3.18}Query\discretionary {-}{}{}Attribute}{86}{subsubsection.6.23.3.18}
\contentsline {subsubsection}{\numberline {6.23.3.19}Query\discretionary {-}{}{}Bool\discretionary {-}{}{}Attribute}{87}{subsubsection.6.23.3.19}
\contentsline {subsubsection}{\numberline {6.23.3.20}Query\discretionary {-}{}{}Bool\discretionary {-}{}{}Text}{87}{subsubsection.6.23.3.20}
\contentsline {subsubsection}{\numberline {6.23.3.21}Query\discretionary {-}{}{}Double\discretionary {-}{}{}Attribute}{87}{subsubsection.6.23.3.21}
\contentsline {subsubsection}{\numberline {6.23.3.22}Query\discretionary {-}{}{}Double\discretionary {-}{}{}Text}{87}{subsubsection.6.23.3.22}
\contentsline {subsubsection}{\numberline {6.23.3.23}Query\discretionary {-}{}{}Float\discretionary {-}{}{}Attribute}{88}{subsubsection.6.23.3.23}
\contentsline {subsubsection}{\numberline {6.23.3.24}Query\discretionary {-}{}{}Float\discretionary {-}{}{}Text}{88}{subsubsection.6.23.3.24}
\contentsline {subsubsection}{\numberline {6.23.3.25}Query\discretionary {-}{}{}Int\discretionary {-}{}{}Attribute}{88}{subsubsection.6.23.3.25}
\contentsline {subsubsection}{\numberline {6.23.3.26}Query\discretionary {-}{}{}Int\discretionary {-}{}{}Text}{88}{subsubsection.6.23.3.26}
\contentsline {subsubsection}{\numberline {6.23.3.27}Query\discretionary {-}{}{}Unsigned\discretionary {-}{}{}Attribute}{89}{subsubsection.6.23.3.27}
\contentsline {subsubsection}{\numberline {6.23.3.28}Query\discretionary {-}{}{}Unsigned\discretionary {-}{}{}Text}{89}{subsubsection.6.23.3.28}
\contentsline {subsubsection}{\numberline {6.23.3.29}Set\discretionary {-}{}{}Attribute}{89}{subsubsection.6.23.3.29}
\contentsline {subsubsection}{\numberline {6.23.3.30}Set\discretionary {-}{}{}Attribute}{90}{subsubsection.6.23.3.30}
\contentsline {subsubsection}{\numberline {6.23.3.31}Set\discretionary {-}{}{}Attribute}{90}{subsubsection.6.23.3.31}
\contentsline {subsubsection}{\numberline {6.23.3.32}Set\discretionary {-}{}{}Attribute}{90}{subsubsection.6.23.3.32}
\contentsline {subsubsection}{\numberline {6.23.3.33}Set\discretionary {-}{}{}Attribute}{90}{subsubsection.6.23.3.33}
\contentsline {subsubsection}{\numberline {6.23.3.34}Set\discretionary {-}{}{}Name}{90}{subsubsection.6.23.3.34}
\contentsline {subsubsection}{\numberline {6.23.3.35}Shallow\discretionary {-}{}{}Clone}{90}{subsubsection.6.23.3.35}
\contentsline {subsubsection}{\numberline {6.23.3.36}Shallow\discretionary {-}{}{}Equal}{91}{subsubsection.6.23.3.36}
\contentsline {subsubsection}{\numberline {6.23.3.37}To\discretionary {-}{}{}Element}{91}{subsubsection.6.23.3.37}
\contentsline {subsubsection}{\numberline {6.23.3.38}To\discretionary {-}{}{}Element}{91}{subsubsection.6.23.3.38}
\contentsline {subsubsection}{\numberline {6.23.3.39}Unsigned\discretionary {-}{}{}Attribute}{92}{subsubsection.6.23.3.39}
\contentsline {subsection}{\numberline {6.23.4}Friends And Related Function Documentation}{92}{subsection.6.23.4}
\contentsline {subsubsection}{\numberline {6.23.4.1}X\discretionary {-}{}{}M\discretionary {-}{}{}L\discretionary {-}{}{}Base}{92}{subsubsection.6.23.4.1}
\contentsline {subsubsection}{\numberline {6.23.4.2}X\discretionary {-}{}{}M\discretionary {-}{}{}L\discretionary {-}{}{}Document}{92}{subsubsection.6.23.4.2}
\contentsline {section}{\numberline {6.24}tinyxml2\discretionary {-}{}{}:\discretionary {-}{}{}:X\discretionary {-}{}{}M\discretionary {-}{}{}L\discretionary {-}{}{}Handle Class Reference}{92}{section.6.24}
\contentsline {subsection}{\numberline {6.24.1}Detailed Description}{93}{subsection.6.24.1}
\contentsline {subsection}{\numberline {6.24.2}Constructor \& Destructor Documentation}{94}{subsection.6.24.2}
\contentsline {subsubsection}{\numberline {6.24.2.1}X\discretionary {-}{}{}M\discretionary {-}{}{}L\discretionary {-}{}{}Handle}{94}{subsubsection.6.24.2.1}
\contentsline {subsubsection}{\numberline {6.24.2.2}X\discretionary {-}{}{}M\discretionary {-}{}{}L\discretionary {-}{}{}Handle}{94}{subsubsection.6.24.2.2}
\contentsline {subsubsection}{\numberline {6.24.2.3}X\discretionary {-}{}{}M\discretionary {-}{}{}L\discretionary {-}{}{}Handle}{94}{subsubsection.6.24.2.3}
\contentsline {subsection}{\numberline {6.24.3}Member Function Documentation}{94}{subsection.6.24.3}
\contentsline {subsubsection}{\numberline {6.24.3.1}First\discretionary {-}{}{}Child}{94}{subsubsection.6.24.3.1}
\contentsline {subsubsection}{\numberline {6.24.3.2}First\discretionary {-}{}{}Child\discretionary {-}{}{}Element}{94}{subsubsection.6.24.3.2}
\contentsline {subsubsection}{\numberline {6.24.3.3}Last\discretionary {-}{}{}Child}{94}{subsubsection.6.24.3.3}
\contentsline {subsubsection}{\numberline {6.24.3.4}Last\discretionary {-}{}{}Child\discretionary {-}{}{}Element}{95}{subsubsection.6.24.3.4}
\contentsline {subsubsection}{\numberline {6.24.3.5}Next\discretionary {-}{}{}Sibling}{95}{subsubsection.6.24.3.5}
\contentsline {subsubsection}{\numberline {6.24.3.6}Next\discretionary {-}{}{}Sibling\discretionary {-}{}{}Element}{95}{subsubsection.6.24.3.6}
\contentsline {subsubsection}{\numberline {6.24.3.7}operator=}{95}{subsubsection.6.24.3.7}
\contentsline {subsubsection}{\numberline {6.24.3.8}Previous\discretionary {-}{}{}Sibling}{95}{subsubsection.6.24.3.8}
\contentsline {subsubsection}{\numberline {6.24.3.9}Previous\discretionary {-}{}{}Sibling\discretionary {-}{}{}Element}{95}{subsubsection.6.24.3.9}
\contentsline {subsubsection}{\numberline {6.24.3.10}To\discretionary {-}{}{}Declaration}{95}{subsubsection.6.24.3.10}
\contentsline {subsubsection}{\numberline {6.24.3.11}To\discretionary {-}{}{}Element}{96}{subsubsection.6.24.3.11}
\contentsline {subsubsection}{\numberline {6.24.3.12}To\discretionary {-}{}{}Node}{96}{subsubsection.6.24.3.12}
\contentsline {subsubsection}{\numberline {6.24.3.13}To\discretionary {-}{}{}Text}{96}{subsubsection.6.24.3.13}
\contentsline {subsubsection}{\numberline {6.24.3.14}To\discretionary {-}{}{}Unknown}{96}{subsubsection.6.24.3.14}
\contentsline {section}{\numberline {6.25}tinyxml2\discretionary {-}{}{}:\discretionary {-}{}{}:X\discretionary {-}{}{}M\discretionary {-}{}{}L\discretionary {-}{}{}Node Class Reference}{96}{section.6.25}
\contentsline {subsection}{\numberline {6.25.1}Detailed Description}{98}{subsection.6.25.1}
\contentsline {subsection}{\numberline {6.25.2}Constructor \& Destructor Documentation}{98}{subsection.6.25.2}
\contentsline {subsubsection}{\numberline {6.25.2.1}X\discretionary {-}{}{}M\discretionary {-}{}{}L\discretionary {-}{}{}Node}{98}{subsubsection.6.25.2.1}
\contentsline {subsubsection}{\numberline {6.25.2.2}$\sim $\discretionary {-}{}{}X\discretionary {-}{}{}M\discretionary {-}{}{}L\discretionary {-}{}{}Node}{99}{subsubsection.6.25.2.2}
\contentsline {subsubsection}{\numberline {6.25.2.3}X\discretionary {-}{}{}M\discretionary {-}{}{}L\discretionary {-}{}{}Node}{99}{subsubsection.6.25.2.3}
\contentsline {subsection}{\numberline {6.25.3}Member Function Documentation}{99}{subsection.6.25.3}
\contentsline {subsubsection}{\numberline {6.25.3.1}Accept}{99}{subsubsection.6.25.3.1}
\contentsline {subsubsection}{\numberline {6.25.3.2}Delete\discretionary {-}{}{}Child}{99}{subsubsection.6.25.3.2}
\contentsline {subsubsection}{\numberline {6.25.3.3}Delete\discretionary {-}{}{}Children}{99}{subsubsection.6.25.3.3}
\contentsline {subsubsection}{\numberline {6.25.3.4}First\discretionary {-}{}{}Child}{100}{subsubsection.6.25.3.4}
\contentsline {subsubsection}{\numberline {6.25.3.5}First\discretionary {-}{}{}Child}{100}{subsubsection.6.25.3.5}
\contentsline {subsubsection}{\numberline {6.25.3.6}First\discretionary {-}{}{}Child\discretionary {-}{}{}Element}{100}{subsubsection.6.25.3.6}
\contentsline {subsubsection}{\numberline {6.25.3.7}First\discretionary {-}{}{}Child\discretionary {-}{}{}Element}{100}{subsubsection.6.25.3.7}
\contentsline {subsubsection}{\numberline {6.25.3.8}Get\discretionary {-}{}{}Document}{100}{subsubsection.6.25.3.8}
\contentsline {subsubsection}{\numberline {6.25.3.9}Get\discretionary {-}{}{}Document}{100}{subsubsection.6.25.3.9}
\contentsline {subsubsection}{\numberline {6.25.3.10}Insert\discretionary {-}{}{}After\discretionary {-}{}{}Child}{101}{subsubsection.6.25.3.10}
\contentsline {subsubsection}{\numberline {6.25.3.11}Insert\discretionary {-}{}{}End\discretionary {-}{}{}Child}{101}{subsubsection.6.25.3.11}
\contentsline {subsubsection}{\numberline {6.25.3.12}Insert\discretionary {-}{}{}First\discretionary {-}{}{}Child}{101}{subsubsection.6.25.3.12}
\contentsline {subsubsection}{\numberline {6.25.3.13}Last\discretionary {-}{}{}Child}{102}{subsubsection.6.25.3.13}
\contentsline {subsubsection}{\numberline {6.25.3.14}Last\discretionary {-}{}{}Child}{102}{subsubsection.6.25.3.14}
\contentsline {subsubsection}{\numberline {6.25.3.15}Last\discretionary {-}{}{}Child\discretionary {-}{}{}Element}{102}{subsubsection.6.25.3.15}
\contentsline {subsubsection}{\numberline {6.25.3.16}Last\discretionary {-}{}{}Child\discretionary {-}{}{}Element}{102}{subsubsection.6.25.3.16}
\contentsline {subsubsection}{\numberline {6.25.3.17}Link\discretionary {-}{}{}End\discretionary {-}{}{}Child}{103}{subsubsection.6.25.3.17}
\contentsline {subsubsection}{\numberline {6.25.3.18}Next\discretionary {-}{}{}Sibling}{103}{subsubsection.6.25.3.18}
\contentsline {subsubsection}{\numberline {6.25.3.19}Next\discretionary {-}{}{}Sibling}{103}{subsubsection.6.25.3.19}
\contentsline {subsubsection}{\numberline {6.25.3.20}Next\discretionary {-}{}{}Sibling\discretionary {-}{}{}Element}{103}{subsubsection.6.25.3.20}
\contentsline {subsubsection}{\numberline {6.25.3.21}Next\discretionary {-}{}{}Sibling\discretionary {-}{}{}Element}{103}{subsubsection.6.25.3.21}
\contentsline {subsubsection}{\numberline {6.25.3.22}No\discretionary {-}{}{}Children}{103}{subsubsection.6.25.3.22}
\contentsline {subsubsection}{\numberline {6.25.3.23}operator=}{103}{subsubsection.6.25.3.23}
\contentsline {subsubsection}{\numberline {6.25.3.24}Parent}{103}{subsubsection.6.25.3.24}
\contentsline {subsubsection}{\numberline {6.25.3.25}Parent}{104}{subsubsection.6.25.3.25}
\contentsline {subsubsection}{\numberline {6.25.3.26}Parse\discretionary {-}{}{}Deep}{104}{subsubsection.6.25.3.26}
\contentsline {subsubsection}{\numberline {6.25.3.27}Previous\discretionary {-}{}{}Sibling}{105}{subsubsection.6.25.3.27}
\contentsline {subsubsection}{\numberline {6.25.3.28}Previous\discretionary {-}{}{}Sibling}{105}{subsubsection.6.25.3.28}
\contentsline {subsubsection}{\numberline {6.25.3.29}Previous\discretionary {-}{}{}Sibling\discretionary {-}{}{}Element}{105}{subsubsection.6.25.3.29}
\contentsline {subsubsection}{\numberline {6.25.3.30}Previous\discretionary {-}{}{}Sibling\discretionary {-}{}{}Element}{105}{subsubsection.6.25.3.30}
\contentsline {subsubsection}{\numberline {6.25.3.31}Set\discretionary {-}{}{}Value}{105}{subsubsection.6.25.3.31}
\contentsline {subsubsection}{\numberline {6.25.3.32}Shallow\discretionary {-}{}{}Clone}{106}{subsubsection.6.25.3.32}
\contentsline {subsubsection}{\numberline {6.25.3.33}Shallow\discretionary {-}{}{}Equal}{106}{subsubsection.6.25.3.33}
\contentsline {subsubsection}{\numberline {6.25.3.34}To\discretionary {-}{}{}Comment}{106}{subsubsection.6.25.3.34}
\contentsline {subsubsection}{\numberline {6.25.3.35}To\discretionary {-}{}{}Comment}{106}{subsubsection.6.25.3.35}
\contentsline {subsubsection}{\numberline {6.25.3.36}To\discretionary {-}{}{}Declaration}{106}{subsubsection.6.25.3.36}
\contentsline {subsubsection}{\numberline {6.25.3.37}To\discretionary {-}{}{}Declaration}{107}{subsubsection.6.25.3.37}
\contentsline {subsubsection}{\numberline {6.25.3.38}To\discretionary {-}{}{}Document}{107}{subsubsection.6.25.3.38}
\contentsline {subsubsection}{\numberline {6.25.3.39}To\discretionary {-}{}{}Document}{107}{subsubsection.6.25.3.39}
\contentsline {subsubsection}{\numberline {6.25.3.40}To\discretionary {-}{}{}Element}{107}{subsubsection.6.25.3.40}
\contentsline {subsubsection}{\numberline {6.25.3.41}To\discretionary {-}{}{}Element}{107}{subsubsection.6.25.3.41}
\contentsline {subsubsection}{\numberline {6.25.3.42}To\discretionary {-}{}{}Text}{107}{subsubsection.6.25.3.42}
\contentsline {subsubsection}{\numberline {6.25.3.43}To\discretionary {-}{}{}Text}{108}{subsubsection.6.25.3.43}
\contentsline {subsubsection}{\numberline {6.25.3.44}To\discretionary {-}{}{}Unknown}{108}{subsubsection.6.25.3.44}
\contentsline {subsubsection}{\numberline {6.25.3.45}To\discretionary {-}{}{}Unknown}{108}{subsubsection.6.25.3.45}
\contentsline {subsubsection}{\numberline {6.25.3.46}Value}{108}{subsubsection.6.25.3.46}
\contentsline {subsection}{\numberline {6.25.4}Friends And Related Function Documentation}{108}{subsection.6.25.4}
\contentsline {subsubsection}{\numberline {6.25.4.1}X\discretionary {-}{}{}M\discretionary {-}{}{}L\discretionary {-}{}{}Document}{108}{subsubsection.6.25.4.1}
\contentsline {subsubsection}{\numberline {6.25.4.2}X\discretionary {-}{}{}M\discretionary {-}{}{}L\discretionary {-}{}{}Element}{108}{subsubsection.6.25.4.2}
\contentsline {subsection}{\numberline {6.25.5}Member Data Documentation}{108}{subsection.6.25.5}
\contentsline {subsubsection}{\numberline {6.25.5.1}\discretionary {-}{}{}\_\discretionary {-}{}{}document}{108}{subsubsection.6.25.5.1}
\contentsline {subsubsection}{\numberline {6.25.5.2}\discretionary {-}{}{}\_\discretionary {-}{}{}first\discretionary {-}{}{}Child}{108}{subsubsection.6.25.5.2}
\contentsline {subsubsection}{\numberline {6.25.5.3}\discretionary {-}{}{}\_\discretionary {-}{}{}last\discretionary {-}{}{}Child}{108}{subsubsection.6.25.5.3}
\contentsline {subsubsection}{\numberline {6.25.5.4}\discretionary {-}{}{}\_\discretionary {-}{}{}next}{109}{subsubsection.6.25.5.4}
\contentsline {subsubsection}{\numberline {6.25.5.5}\discretionary {-}{}{}\_\discretionary {-}{}{}parent}{109}{subsubsection.6.25.5.5}
\contentsline {subsubsection}{\numberline {6.25.5.6}\discretionary {-}{}{}\_\discretionary {-}{}{}prev}{109}{subsubsection.6.25.5.6}
\contentsline {subsubsection}{\numberline {6.25.5.7}\discretionary {-}{}{}\_\discretionary {-}{}{}value}{109}{subsubsection.6.25.5.7}
\contentsline {section}{\numberline {6.26}tinyxml2\discretionary {-}{}{}:\discretionary {-}{}{}:X\discretionary {-}{}{}M\discretionary {-}{}{}L\discretionary {-}{}{}Printer Class Reference}{109}{section.6.26}
\contentsline {subsection}{\numberline {6.26.1}Detailed Description}{110}{subsection.6.26.1}
\contentsline {subsection}{\numberline {6.26.2}Constructor \& Destructor Documentation}{111}{subsection.6.26.2}
\contentsline {subsubsection}{\numberline {6.26.2.1}X\discretionary {-}{}{}M\discretionary {-}{}{}L\discretionary {-}{}{}Printer}{111}{subsubsection.6.26.2.1}
\contentsline {subsubsection}{\numberline {6.26.2.2}$\sim $\discretionary {-}{}{}X\discretionary {-}{}{}M\discretionary {-}{}{}L\discretionary {-}{}{}Printer}{111}{subsubsection.6.26.2.2}
\contentsline {subsection}{\numberline {6.26.3}Member Function Documentation}{111}{subsection.6.26.3}
\contentsline {subsubsection}{\numberline {6.26.3.1}Close\discretionary {-}{}{}Element}{111}{subsubsection.6.26.3.1}
\contentsline {subsubsection}{\numberline {6.26.3.2}C\discretionary {-}{}{}Str}{112}{subsubsection.6.26.3.2}
\contentsline {subsubsection}{\numberline {6.26.3.3}C\discretionary {-}{}{}Str\discretionary {-}{}{}Size}{112}{subsubsection.6.26.3.3}
\contentsline {subsubsection}{\numberline {6.26.3.4}Open\discretionary {-}{}{}Element}{112}{subsubsection.6.26.3.4}
\contentsline {subsubsection}{\numberline {6.26.3.5}Push\discretionary {-}{}{}Attribute}{112}{subsubsection.6.26.3.5}
\contentsline {subsubsection}{\numberline {6.26.3.6}Push\discretionary {-}{}{}Attribute}{112}{subsubsection.6.26.3.6}
\contentsline {subsubsection}{\numberline {6.26.3.7}Push\discretionary {-}{}{}Attribute}{113}{subsubsection.6.26.3.7}
\contentsline {subsubsection}{\numberline {6.26.3.8}Push\discretionary {-}{}{}Attribute}{113}{subsubsection.6.26.3.8}
\contentsline {subsubsection}{\numberline {6.26.3.9}Push\discretionary {-}{}{}Attribute}{113}{subsubsection.6.26.3.9}
\contentsline {subsubsection}{\numberline {6.26.3.10}Push\discretionary {-}{}{}Comment}{113}{subsubsection.6.26.3.10}
\contentsline {subsubsection}{\numberline {6.26.3.11}Push\discretionary {-}{}{}Declaration}{113}{subsubsection.6.26.3.11}
\contentsline {subsubsection}{\numberline {6.26.3.12}Push\discretionary {-}{}{}Header}{114}{subsubsection.6.26.3.12}
\contentsline {subsubsection}{\numberline {6.26.3.13}Push\discretionary {-}{}{}Text}{114}{subsubsection.6.26.3.13}
\contentsline {subsubsection}{\numberline {6.26.3.14}Push\discretionary {-}{}{}Text}{114}{subsubsection.6.26.3.14}
\contentsline {subsubsection}{\numberline {6.26.3.15}Push\discretionary {-}{}{}Text}{114}{subsubsection.6.26.3.15}
\contentsline {subsubsection}{\numberline {6.26.3.16}Push\discretionary {-}{}{}Text}{115}{subsubsection.6.26.3.16}
\contentsline {subsubsection}{\numberline {6.26.3.17}Push\discretionary {-}{}{}Text}{115}{subsubsection.6.26.3.17}
\contentsline {subsubsection}{\numberline {6.26.3.18}Push\discretionary {-}{}{}Text}{115}{subsubsection.6.26.3.18}
\contentsline {subsubsection}{\numberline {6.26.3.19}Push\discretionary {-}{}{}Unknown}{115}{subsubsection.6.26.3.19}
\contentsline {subsubsection}{\numberline {6.26.3.20}Seal\discretionary {-}{}{}Element}{115}{subsubsection.6.26.3.20}
\contentsline {subsubsection}{\numberline {6.26.3.21}Visit}{116}{subsubsection.6.26.3.21}
\contentsline {subsubsection}{\numberline {6.26.3.22}Visit}{116}{subsubsection.6.26.3.22}
\contentsline {subsubsection}{\numberline {6.26.3.23}Visit}{116}{subsubsection.6.26.3.23}
\contentsline {subsubsection}{\numberline {6.26.3.24}Visit}{116}{subsubsection.6.26.3.24}
\contentsline {subsubsection}{\numberline {6.26.3.25}Visit\discretionary {-}{}{}Enter}{116}{subsubsection.6.26.3.25}
\contentsline {subsubsection}{\numberline {6.26.3.26}Visit\discretionary {-}{}{}Enter}{117}{subsubsection.6.26.3.26}
\contentsline {subsubsection}{\numberline {6.26.3.27}Visit\discretionary {-}{}{}Exit}{117}{subsubsection.6.26.3.27}
\contentsline {subsubsection}{\numberline {6.26.3.28}Visit\discretionary {-}{}{}Exit}{117}{subsubsection.6.26.3.28}
\contentsline {subsection}{\numberline {6.26.4}Member Data Documentation}{117}{subsection.6.26.4}
\contentsline {subsubsection}{\numberline {6.26.4.1}\discretionary {-}{}{}\_\discretionary {-}{}{}element\discretionary {-}{}{}Just\discretionary {-}{}{}Opened}{117}{subsubsection.6.26.4.1}
\contentsline {subsubsection}{\numberline {6.26.4.2}\discretionary {-}{}{}\_\discretionary {-}{}{}stack}{117}{subsubsection.6.26.4.2}
\contentsline {section}{\numberline {6.27}tinyxml2\discretionary {-}{}{}:\discretionary {-}{}{}:X\discretionary {-}{}{}M\discretionary {-}{}{}L\discretionary {-}{}{}Text Class Reference}{117}{section.6.27}
\contentsline {subsection}{\numberline {6.27.1}Detailed Description}{118}{subsection.6.27.1}
\contentsline {subsection}{\numberline {6.27.2}Constructor \& Destructor Documentation}{118}{subsection.6.27.2}
\contentsline {subsubsection}{\numberline {6.27.2.1}X\discretionary {-}{}{}M\discretionary {-}{}{}L\discretionary {-}{}{}Text}{118}{subsubsection.6.27.2.1}
\contentsline {subsubsection}{\numberline {6.27.2.2}$\sim $\discretionary {-}{}{}X\discretionary {-}{}{}M\discretionary {-}{}{}L\discretionary {-}{}{}Text}{118}{subsubsection.6.27.2.2}
\contentsline {subsubsection}{\numberline {6.27.2.3}X\discretionary {-}{}{}M\discretionary {-}{}{}L\discretionary {-}{}{}Text}{119}{subsubsection.6.27.2.3}
\contentsline {subsection}{\numberline {6.27.3}Member Function Documentation}{119}{subsection.6.27.3}
\contentsline {subsubsection}{\numberline {6.27.3.1}Accept}{119}{subsubsection.6.27.3.1}
\contentsline {subsubsection}{\numberline {6.27.3.2}C\discretionary {-}{}{}Data}{119}{subsubsection.6.27.3.2}
\contentsline {subsubsection}{\numberline {6.27.3.3}operator=}{119}{subsubsection.6.27.3.3}
\contentsline {subsubsection}{\numberline {6.27.3.4}Parse\discretionary {-}{}{}Deep}{119}{subsubsection.6.27.3.4}
\contentsline {subsubsection}{\numberline {6.27.3.5}Set\discretionary {-}{}{}C\discretionary {-}{}{}Data}{120}{subsubsection.6.27.3.5}
\contentsline {subsubsection}{\numberline {6.27.3.6}Shallow\discretionary {-}{}{}Clone}{120}{subsubsection.6.27.3.6}
\contentsline {subsubsection}{\numberline {6.27.3.7}Shallow\discretionary {-}{}{}Equal}{120}{subsubsection.6.27.3.7}
\contentsline {subsubsection}{\numberline {6.27.3.8}To\discretionary {-}{}{}Text}{121}{subsubsection.6.27.3.8}
\contentsline {subsubsection}{\numberline {6.27.3.9}To\discretionary {-}{}{}Text}{121}{subsubsection.6.27.3.9}
\contentsline {subsection}{\numberline {6.27.4}Friends And Related Function Documentation}{121}{subsection.6.27.4}
\contentsline {subsubsection}{\numberline {6.27.4.1}X\discretionary {-}{}{}M\discretionary {-}{}{}L\discretionary {-}{}{}Base}{121}{subsubsection.6.27.4.1}
\contentsline {subsubsection}{\numberline {6.27.4.2}X\discretionary {-}{}{}M\discretionary {-}{}{}L\discretionary {-}{}{}Document}{121}{subsubsection.6.27.4.2}
\contentsline {section}{\numberline {6.28}tinyxml2\discretionary {-}{}{}:\discretionary {-}{}{}:X\discretionary {-}{}{}M\discretionary {-}{}{}L\discretionary {-}{}{}Unknown Class Reference}{121}{section.6.28}
\contentsline {subsection}{\numberline {6.28.1}Detailed Description}{122}{subsection.6.28.1}
\contentsline {subsection}{\numberline {6.28.2}Constructor \& Destructor Documentation}{122}{subsection.6.28.2}
\contentsline {subsubsection}{\numberline {6.28.2.1}X\discretionary {-}{}{}M\discretionary {-}{}{}L\discretionary {-}{}{}Unknown}{122}{subsubsection.6.28.2.1}
\contentsline {subsubsection}{\numberline {6.28.2.2}$\sim $\discretionary {-}{}{}X\discretionary {-}{}{}M\discretionary {-}{}{}L\discretionary {-}{}{}Unknown}{122}{subsubsection.6.28.2.2}
\contentsline {subsubsection}{\numberline {6.28.2.3}X\discretionary {-}{}{}M\discretionary {-}{}{}L\discretionary {-}{}{}Unknown}{122}{subsubsection.6.28.2.3}
\contentsline {subsection}{\numberline {6.28.3}Member Function Documentation}{122}{subsection.6.28.3}
\contentsline {subsubsection}{\numberline {6.28.3.1}Accept}{122}{subsubsection.6.28.3.1}
\contentsline {subsubsection}{\numberline {6.28.3.2}operator=}{123}{subsubsection.6.28.3.2}
\contentsline {subsubsection}{\numberline {6.28.3.3}Parse\discretionary {-}{}{}Deep}{123}{subsubsection.6.28.3.3}
\contentsline {subsubsection}{\numberline {6.28.3.4}Shallow\discretionary {-}{}{}Clone}{123}{subsubsection.6.28.3.4}
\contentsline {subsubsection}{\numberline {6.28.3.5}Shallow\discretionary {-}{}{}Equal}{123}{subsubsection.6.28.3.5}
\contentsline {subsubsection}{\numberline {6.28.3.6}To\discretionary {-}{}{}Unknown}{123}{subsubsection.6.28.3.6}
\contentsline {subsubsection}{\numberline {6.28.3.7}To\discretionary {-}{}{}Unknown}{124}{subsubsection.6.28.3.7}
\contentsline {subsection}{\numberline {6.28.4}Friends And Related Function Documentation}{124}{subsection.6.28.4}
\contentsline {subsubsection}{\numberline {6.28.4.1}X\discretionary {-}{}{}M\discretionary {-}{}{}L\discretionary {-}{}{}Document}{124}{subsubsection.6.28.4.1}
\contentsline {section}{\numberline {6.29}tinyxml2\discretionary {-}{}{}:\discretionary {-}{}{}:X\discretionary {-}{}{}M\discretionary {-}{}{}L\discretionary {-}{}{}Util Class Reference}{124}{section.6.29}
\contentsline {subsection}{\numberline {6.29.1}Member Function Documentation}{124}{subsection.6.29.1}
\contentsline {subsubsection}{\numberline {6.29.1.1}Convert\discretionary {-}{}{}U\discretionary {-}{}{}T\discretionary {-}{}{}F32\discretionary {-}{}{}To\discretionary {-}{}{}U\discretionary {-}{}{}T\discretionary {-}{}{}F8}{124}{subsubsection.6.29.1.1}
\contentsline {subsubsection}{\numberline {6.29.1.2}Get\discretionary {-}{}{}Character\discretionary {-}{}{}Ref}{125}{subsubsection.6.29.1.2}
\contentsline {subsubsection}{\numberline {6.29.1.3}Is\discretionary {-}{}{}Name\discretionary {-}{}{}Char}{126}{subsubsection.6.29.1.3}
\contentsline {subsubsection}{\numberline {6.29.1.4}Is\discretionary {-}{}{}Name\discretionary {-}{}{}Start\discretionary {-}{}{}Char}{126}{subsubsection.6.29.1.4}
\contentsline {subsubsection}{\numberline {6.29.1.5}Is\discretionary {-}{}{}U\discretionary {-}{}{}T\discretionary {-}{}{}F8\discretionary {-}{}{}Continuation}{126}{subsubsection.6.29.1.5}
\contentsline {subsubsection}{\numberline {6.29.1.6}Is\discretionary {-}{}{}White\discretionary {-}{}{}Space}{126}{subsubsection.6.29.1.6}
\contentsline {subsubsection}{\numberline {6.29.1.7}Read\discretionary {-}{}{}B\discretionary {-}{}{}O\discretionary {-}{}{}M}{126}{subsubsection.6.29.1.7}
\contentsline {subsubsection}{\numberline {6.29.1.8}Skip\discretionary {-}{}{}White\discretionary {-}{}{}Space}{127}{subsubsection.6.29.1.8}
\contentsline {subsubsection}{\numberline {6.29.1.9}Skip\discretionary {-}{}{}White\discretionary {-}{}{}Space}{127}{subsubsection.6.29.1.9}
\contentsline {subsubsection}{\numberline {6.29.1.10}String\discretionary {-}{}{}Equal}{127}{subsubsection.6.29.1.10}
\contentsline {subsubsection}{\numberline {6.29.1.11}To\discretionary {-}{}{}Bool}{127}{subsubsection.6.29.1.11}
\contentsline {subsubsection}{\numberline {6.29.1.12}To\discretionary {-}{}{}Double}{128}{subsubsection.6.29.1.12}
\contentsline {subsubsection}{\numberline {6.29.1.13}To\discretionary {-}{}{}Float}{128}{subsubsection.6.29.1.13}
\contentsline {subsubsection}{\numberline {6.29.1.14}To\discretionary {-}{}{}Int}{128}{subsubsection.6.29.1.14}
\contentsline {subsubsection}{\numberline {6.29.1.15}To\discretionary {-}{}{}Str}{128}{subsubsection.6.29.1.15}
\contentsline {subsubsection}{\numberline {6.29.1.16}To\discretionary {-}{}{}Str}{128}{subsubsection.6.29.1.16}
\contentsline {subsubsection}{\numberline {6.29.1.17}To\discretionary {-}{}{}Str}{128}{subsubsection.6.29.1.17}
\contentsline {subsubsection}{\numberline {6.29.1.18}To\discretionary {-}{}{}Str}{128}{subsubsection.6.29.1.18}
\contentsline {subsubsection}{\numberline {6.29.1.19}To\discretionary {-}{}{}Str}{128}{subsubsection.6.29.1.19}
\contentsline {subsubsection}{\numberline {6.29.1.20}To\discretionary {-}{}{}Unsigned}{129}{subsubsection.6.29.1.20}
\contentsline {section}{\numberline {6.30}tinyxml2\discretionary {-}{}{}:\discretionary {-}{}{}:X\discretionary {-}{}{}M\discretionary {-}{}{}L\discretionary {-}{}{}Visitor Class Reference}{129}{section.6.30}
\contentsline {subsection}{\numberline {6.30.1}Detailed Description}{129}{subsection.6.30.1}
\contentsline {subsection}{\numberline {6.30.2}Constructor \& Destructor Documentation}{130}{subsection.6.30.2}
\contentsline {subsubsection}{\numberline {6.30.2.1}$\sim $\discretionary {-}{}{}X\discretionary {-}{}{}M\discretionary {-}{}{}L\discretionary {-}{}{}Visitor}{130}{subsubsection.6.30.2.1}
\contentsline {subsection}{\numberline {6.30.3}Member Function Documentation}{130}{subsection.6.30.3}
\contentsline {subsubsection}{\numberline {6.30.3.1}Visit}{130}{subsubsection.6.30.3.1}
\contentsline {subsubsection}{\numberline {6.30.3.2}Visit}{130}{subsubsection.6.30.3.2}
\contentsline {subsubsection}{\numberline {6.30.3.3}Visit}{130}{subsubsection.6.30.3.3}
\contentsline {subsubsection}{\numberline {6.30.3.4}Visit}{130}{subsubsection.6.30.3.4}
\contentsline {subsubsection}{\numberline {6.30.3.5}Visit\discretionary {-}{}{}Enter}{130}{subsubsection.6.30.3.5}
\contentsline {subsubsection}{\numberline {6.30.3.6}Visit\discretionary {-}{}{}Enter}{131}{subsubsection.6.30.3.6}
\contentsline {subsubsection}{\numberline {6.30.3.7}Visit\discretionary {-}{}{}Exit}{131}{subsubsection.6.30.3.7}
\contentsline {subsubsection}{\numberline {6.30.3.8}Visit\discretionary {-}{}{}Exit}{131}{subsubsection.6.30.3.8}
\contentsline {chapter}{\numberline {7}File Documentation}{133}{chapter.7}
\contentsline {section}{\numberline {7.1}src/\discretionary {-}{}{}C\discretionary {-}{}{}F\discretionary {-}{}{}G/\discretionary {-}{}{}C\discretionary {-}{}{}F\discretionary {-}{}{}G.cpp File Reference}{133}{section.7.1}
\contentsline {section}{\numberline {7.2}src/\discretionary {-}{}{}C\discretionary {-}{}{}F\discretionary {-}{}{}G/\discretionary {-}{}{}C\discretionary {-}{}{}F\discretionary {-}{}{}G.h File Reference}{133}{section.7.2}
\contentsline {subsection}{\numberline {7.2.1}Macro Definition Documentation}{134}{subsection.7.2.1}
\contentsline {subsubsection}{\numberline {7.2.1.1}C\discretionary {-}{}{}F\discretionary {-}{}{}G\discretionary {-}{}{}\_\discretionary {-}{}{}\discretionary {-}{}{}H\discretionary {-}{}{}\_\discretionary {-}{}{}}{134}{subsubsection.7.2.1.1}
\contentsline {section}{\numberline {7.3}src/\discretionary {-}{}{}Color/ccolor.cpp File Reference}{134}{section.7.3}
\contentsline {section}{\numberline {7.4}src/\discretionary {-}{}{}Color/ccolor.h File Reference}{134}{section.7.4}
\contentsline {subsection}{\numberline {7.4.1}Macro Definition Documentation}{135}{subsection.7.4.1}
\contentsline {subsubsection}{\numberline {7.4.1.1}C\discretionary {-}{}{}C\discretionary {-}{}{}\_\discretionary {-}{}{}\discretionary {-}{}{}A\discretionary {-}{}{}T\discretionary {-}{}{}T\discretionary {-}{}{}R}{135}{subsubsection.7.4.1.1}
\contentsline {subsubsection}{\numberline {7.4.1.2}C\discretionary {-}{}{}C\discretionary {-}{}{}\_\discretionary {-}{}{}\discretionary {-}{}{}B\discretionary {-}{}{}A\discretionary {-}{}{}C\discretionary {-}{}{}K\discretionary {-}{}{}C\discretionary {-}{}{}O\discretionary {-}{}{}L\discretionary {-}{}{}O\discretionary {-}{}{}R}{135}{subsubsection.7.4.1.2}
\contentsline {subsubsection}{\numberline {7.4.1.3}C\discretionary {-}{}{}C\discretionary {-}{}{}\_\discretionary {-}{}{}\discretionary {-}{}{}C\discretionary {-}{}{}O\discretionary {-}{}{}N\discretionary {-}{}{}S\discretionary {-}{}{}O\discretionary {-}{}{}L\discretionary {-}{}{}E\discretionary {-}{}{}\_\discretionary {-}{}{}\discretionary {-}{}{}C\discretionary {-}{}{}O\discretionary {-}{}{}L\discretionary {-}{}{}O\discretionary {-}{}{}R\discretionary {-}{}{}\_\discretionary {-}{}{}\discretionary {-}{}{}D\discretionary {-}{}{}E\discretionary {-}{}{}F\discretionary {-}{}{}A\discretionary {-}{}{}U\discretionary {-}{}{}L\discretionary {-}{}{}T}{135}{subsubsection.7.4.1.3}
\contentsline {subsubsection}{\numberline {7.4.1.4}C\discretionary {-}{}{}C\discretionary {-}{}{}\_\discretionary {-}{}{}\discretionary {-}{}{}F\discretionary {-}{}{}O\discretionary {-}{}{}R\discretionary {-}{}{}E\discretionary {-}{}{}C\discretionary {-}{}{}O\discretionary {-}{}{}L\discretionary {-}{}{}O\discretionary {-}{}{}R}{135}{subsubsection.7.4.1.4}
\contentsline {section}{\numberline {7.5}src/\discretionary {-}{}{}C\discretionary {-}{}{}O\discretionary {-}{}{}N\discretionary {-}{}{}V/\discretionary {-}{}{}C\discretionary {-}{}{}O\discretionary {-}{}{}N\discretionary {-}{}{}V.cpp File Reference}{135}{section.7.5}
\contentsline {section}{\numberline {7.6}src/\discretionary {-}{}{}C\discretionary {-}{}{}O\discretionary {-}{}{}N\discretionary {-}{}{}V/\discretionary {-}{}{}C\discretionary {-}{}{}O\discretionary {-}{}{}N\discretionary {-}{}{}V.h File Reference}{135}{section.7.6}
\contentsline {subsection}{\numberline {7.6.1}Macro Definition Documentation}{135}{subsection.7.6.1}
\contentsline {subsubsection}{\numberline {7.6.1.1}C\discretionary {-}{}{}O\discretionary {-}{}{}N\discretionary {-}{}{}V\discretionary {-}{}{}\_\discretionary {-}{}{}\discretionary {-}{}{}H\discretionary {-}{}{}\_\discretionary {-}{}{}}{135}{subsubsection.7.6.1.1}
\contentsline {section}{\numberline {7.7}src/\discretionary {-}{}{}Design\discretionary {-}{}{}By\discretionary {-}{}{}Contract.h File Reference}{136}{section.7.7}
\contentsline {subsection}{\numberline {7.7.1}Macro Definition Documentation}{136}{subsection.7.7.1}
\contentsline {subsubsection}{\numberline {7.7.1.1}E\discretionary {-}{}{}N\discretionary {-}{}{}S\discretionary {-}{}{}U\discretionary {-}{}{}R\discretionary {-}{}{}E}{136}{subsubsection.7.7.1.1}
\contentsline {subsubsection}{\numberline {7.7.1.2}R\discretionary {-}{}{}E\discretionary {-}{}{}Q\discretionary {-}{}{}U\discretionary {-}{}{}I\discretionary {-}{}{}R\discretionary {-}{}{}E}{136}{subsubsection.7.7.1.2}
\contentsline {section}{\numberline {7.8}src/main.cpp File Reference}{136}{section.7.8}
\contentsline {subsection}{\numberline {7.8.1}Function Documentation}{136}{subsection.7.8.1}
\contentsline {subsubsection}{\numberline {7.8.1.1}main}{136}{subsubsection.7.8.1.1}
\contentsline {section}{\numberline {7.9}src/\discretionary {-}{}{}Parser/tinyxml2.cpp File Reference}{137}{section.7.9}
\contentsline {subsection}{\numberline {7.9.1}Macro Definition Documentation}{137}{subsection.7.9.1}
\contentsline {subsubsection}{\numberline {7.9.1.1}D\discretionary {-}{}{}E\discretionary {-}{}{}L\discretionary {-}{}{}E\discretionary {-}{}{}T\discretionary {-}{}{}E\discretionary {-}{}{}\_\discretionary {-}{}{}\discretionary {-}{}{}A\discretionary {-}{}{}T\discretionary {-}{}{}T\discretionary {-}{}{}R\discretionary {-}{}{}I\discretionary {-}{}{}B\discretionary {-}{}{}U\discretionary {-}{}{}T\discretionary {-}{}{}E}{137}{subsubsection.7.9.1.1}
\contentsline {subsubsection}{\numberline {7.9.1.2}D\discretionary {-}{}{}E\discretionary {-}{}{}L\discretionary {-}{}{}E\discretionary {-}{}{}T\discretionary {-}{}{}E\discretionary {-}{}{}\_\discretionary {-}{}{}\discretionary {-}{}{}N\discretionary {-}{}{}O\discretionary {-}{}{}D\discretionary {-}{}{}E}{137}{subsubsection.7.9.1.2}
\contentsline {section}{\numberline {7.10}src/\discretionary {-}{}{}Parser/tinyxml2.h File Reference}{137}{section.7.10}
\contentsline {subsection}{\numberline {7.10.1}Macro Definition Documentation}{138}{subsection.7.10.1}
\contentsline {subsubsection}{\numberline {7.10.1.1}T\discretionary {-}{}{}I\discretionary {-}{}{}N\discretionary {-}{}{}Y\discretionary {-}{}{}X\discretionary {-}{}{}M\discretionary {-}{}{}L2\discretionary {-}{}{}\_\discretionary {-}{}{}\discretionary {-}{}{}L\discretionary {-}{}{}I\discretionary {-}{}{}B}{138}{subsubsection.7.10.1.1}
\contentsline {subsubsection}{\numberline {7.10.1.2}T\discretionary {-}{}{}I\discretionary {-}{}{}X\discretionary {-}{}{}M\discretionary {-}{}{}L\discretionary {-}{}{}\_\discretionary {-}{}{}\discretionary {-}{}{}S\discretionary {-}{}{}N\discretionary {-}{}{}P\discretionary {-}{}{}R\discretionary {-}{}{}I\discretionary {-}{}{}N\discretionary {-}{}{}T\discretionary {-}{}{}F}{138}{subsubsection.7.10.1.2}
\contentsline {subsubsection}{\numberline {7.10.1.3}T\discretionary {-}{}{}I\discretionary {-}{}{}X\discretionary {-}{}{}M\discretionary {-}{}{}L\discretionary {-}{}{}\_\discretionary {-}{}{}\discretionary {-}{}{}S\discretionary {-}{}{}S\discretionary {-}{}{}C\discretionary {-}{}{}A\discretionary {-}{}{}N\discretionary {-}{}{}F}{139}{subsubsection.7.10.1.3}
\contentsline {subsubsection}{\numberline {7.10.1.4}T\discretionary {-}{}{}I\discretionary {-}{}{}X\discretionary {-}{}{}M\discretionary {-}{}{}L\discretionary {-}{}{}A\discretionary {-}{}{}S\discretionary {-}{}{}S\discretionary {-}{}{}E\discretionary {-}{}{}R\discretionary {-}{}{}T}{139}{subsubsection.7.10.1.4}
\contentsline {section}{\numberline {7.11}src/\discretionary {-}{}{}P\discretionary {-}{}{}D\discretionary {-}{}{}A/\discretionary {-}{}{}P\discretionary {-}{}{}D\discretionary {-}{}{}A.cpp File Reference}{139}{section.7.11}
\contentsline {section}{\numberline {7.12}src/\discretionary {-}{}{}P\discretionary {-}{}{}D\discretionary {-}{}{}A/\discretionary {-}{}{}P\discretionary {-}{}{}D\discretionary {-}{}{}A.h File Reference}{139}{section.7.12}
\contentsline {subsection}{\numberline {7.12.1}Macro Definition Documentation}{139}{subsection.7.12.1}
\contentsline {subsubsection}{\numberline {7.12.1.1}P\discretionary {-}{}{}D\discretionary {-}{}{}A\discretionary {-}{}{}\_\discretionary {-}{}{}\discretionary {-}{}{}H\discretionary {-}{}{}\_\discretionary {-}{}{}}{139}{subsubsection.7.12.1.1}
\contentsline {section}{\numberline {7.13}src/\discretionary {-}{}{}Tuple\discretionary {-}{}{}Triple/\discretionary {-}{}{}Triple.h File Reference}{140}{section.7.13}
\contentsline {section}{\numberline {7.14}src/\discretionary {-}{}{}Tuple\discretionary {-}{}{}Triple/\discretionary {-}{}{}Tuple.h File Reference}{140}{section.7.14}
\contentsline {section}{\numberline {7.15}src/\discretionary {-}{}{}Verbose/\discretionary {-}{}{}Verbose.cpp File Reference}{140}{section.7.15}
\contentsline {section}{\numberline {7.16}src/\discretionary {-}{}{}Verbose/\discretionary {-}{}{}Verbose.h File Reference}{141}{section.7.16}
\contentsline {subsection}{\numberline {7.16.1}Macro Definition Documentation}{141}{subsection.7.16.1}
\contentsline {subsubsection}{\numberline {7.16.1.1}V\discretionary {-}{}{}E\discretionary {-}{}{}R\discretionary {-}{}{}B\discretionary {-}{}{}O\discretionary {-}{}{}S\discretionary {-}{}{}E\discretionary {-}{}{}\_\discretionary {-}{}{}\discretionary {-}{}{}\_\discretionary {-}{}{}\discretionary {-}{}{}H\discretionary {-}{}{}\_\discretionary {-}{}{}}{141}{subsubsection.7.16.1.1}
\contentsline {part}{Index}{142}{section*.104}
