digraph "src/CONV/CONV.cpp"
{
  edge [fontname="Helvetica",fontsize="10",labelfontname="Helvetica",labelfontsize="10"];
  node [fontname="Helvetica",fontsize="10",shape=record];
  Node1 [label="src/CONV/CONV.cpp",height=0.2,width=0.4,color="black", fillcolor="grey75", style="filled" fontcolor="black"];
  Node1 -> Node2 [color="midnightblue",fontsize="10",style="solid",fontname="Helvetica"];
  Node2 [label="CONV.h",height=0.2,width=0.4,color="black", fillcolor="white", style="filled",URL="$_c_o_n_v_8h.html"];
  Node2 -> Node3 [color="midnightblue",fontsize="10",style="solid",fontname="Helvetica"];
  Node3 [label="../PDA/PDA.h",height=0.2,width=0.4,color="black", fillcolor="white", style="filled",URL="$_p_d_a_8h.html"];
  Node3 -> Node4 [color="midnightblue",fontsize="10",style="solid",fontname="Helvetica"];
  Node4 [label="set",height=0.2,width=0.4,color="grey75", fillcolor="white", style="filled"];
  Node3 -> Node5 [color="midnightblue",fontsize="10",style="solid",fontname="Helvetica"];
  Node5 [label="map",height=0.2,width=0.4,color="grey75", fillcolor="white", style="filled"];
  Node3 -> Node6 [color="midnightblue",fontsize="10",style="solid",fontname="Helvetica"];
  Node6 [label="string",height=0.2,width=0.4,color="grey75", fillcolor="white", style="filled"];
  Node3 -> Node7 [color="midnightblue",fontsize="10",style="solid",fontname="Helvetica"];
  Node7 [label="stack",height=0.2,width=0.4,color="grey75", fillcolor="white", style="filled"];
  Node3 -> Node8 [color="midnightblue",fontsize="10",style="solid",fontname="Helvetica"];
  Node8 [label="stdio.h",height=0.2,width=0.4,color="grey75", fillcolor="white", style="filled"];
  Node3 -> Node9 [color="midnightblue",fontsize="10",style="solid",fontname="Helvetica"];
  Node9 [label="vector",height=0.2,width=0.4,color="grey75", fillcolor="white", style="filled"];
  Node3 -> Node10 [color="midnightblue",fontsize="10",style="solid",fontname="Helvetica"];
  Node10 [label="iostream",height=0.2,width=0.4,color="grey75", fillcolor="white", style="filled"];
  Node3 -> Node11 [color="midnightblue",fontsize="10",style="solid",fontname="Helvetica"];
  Node11 [label="limits",height=0.2,width=0.4,color="grey75", fillcolor="white", style="filled"];
  Node3 -> Node12 [color="midnightblue",fontsize="10",style="solid",fontname="Helvetica"];
  Node12 [label="sstream",height=0.2,width=0.4,color="grey75", fillcolor="white", style="filled"];
  Node3 -> Node13 [color="midnightblue",fontsize="10",style="solid",fontname="Helvetica"];
  Node13 [label="../TupleTriple/Triple.h",height=0.2,width=0.4,color="black", fillcolor="white", style="filled",URL="$_triple_8h.html"];
  Node13 -> Node12 [color="midnightblue",fontsize="10",style="solid",fontname="Helvetica"];
  Node3 -> Node14 [color="midnightblue",fontsize="10",style="solid",fontname="Helvetica"];
  Node14 [label="../TupleTriple/Tuple.h",height=0.2,width=0.4,color="black", fillcolor="white", style="filled",URL="$_tuple_8h.html"];
  Node14 -> Node12 [color="midnightblue",fontsize="10",style="solid",fontname="Helvetica"];
  Node3 -> Node15 [color="midnightblue",fontsize="10",style="solid",fontname="Helvetica"];
  Node15 [label="../DesignByContract.h",height=0.2,width=0.4,color="black", fillcolor="white", style="filled",URL="$_design_by_contract_8h.html"];
  Node15 -> Node16 [color="midnightblue",fontsize="10",style="solid",fontname="Helvetica"];
  Node16 [label="assert.h",height=0.2,width=0.4,color="grey75", fillcolor="white", style="filled"];
  Node3 -> Node17 [color="midnightblue",fontsize="10",style="solid",fontname="Helvetica"];
  Node17 [label="../Parser/tinyxml2.h",height=0.2,width=0.4,color="black", fillcolor="white", style="filled",URL="$tinyxml2_8h.html"];
  Node17 -> Node18 [color="midnightblue",fontsize="10",style="solid",fontname="Helvetica"];
  Node18 [label="cctype",height=0.2,width=0.4,color="grey75", fillcolor="white", style="filled"];
  Node17 -> Node19 [color="midnightblue",fontsize="10",style="solid",fontname="Helvetica"];
  Node19 [label="climits",height=0.2,width=0.4,color="grey75", fillcolor="white", style="filled"];
  Node17 -> Node20 [color="midnightblue",fontsize="10",style="solid",fontname="Helvetica"];
  Node20 [label="cstdio",height=0.2,width=0.4,color="grey75", fillcolor="white", style="filled"];
  Node17 -> Node21 [color="midnightblue",fontsize="10",style="solid",fontname="Helvetica"];
  Node21 [label="cstdlib",height=0.2,width=0.4,color="grey75", fillcolor="white", style="filled"];
  Node17 -> Node22 [color="midnightblue",fontsize="10",style="solid",fontname="Helvetica"];
  Node22 [label="cstring",height=0.2,width=0.4,color="grey75", fillcolor="white", style="filled"];
  Node17 -> Node23 [color="midnightblue",fontsize="10",style="solid",fontname="Helvetica"];
  Node23 [label="cstdarg",height=0.2,width=0.4,color="grey75", fillcolor="white", style="filled"];
  Node17 -> Node24 [color="midnightblue",fontsize="10",style="solid",fontname="Helvetica"];
  Node24 [label="fstream",height=0.2,width=0.4,color="grey75", fillcolor="white", style="filled"];
  Node3 -> Node25 [color="midnightblue",fontsize="10",style="solid",fontname="Helvetica"];
  Node25 [label="../Verbose/Verbose.h",height=0.2,width=0.4,color="black", fillcolor="white", style="filled",URL="$_verbose_8h.html"];
  Node25 -> Node7 [color="midnightblue",fontsize="10",style="solid",fontname="Helvetica"];
  Node25 -> Node6 [color="midnightblue",fontsize="10",style="solid",fontname="Helvetica"];
  Node25 -> Node10 [color="midnightblue",fontsize="10",style="solid",fontname="Helvetica"];
  Node25 -> Node12 [color="midnightblue",fontsize="10",style="solid",fontname="Helvetica"];
  Node25 -> Node26 [color="midnightblue",fontsize="10",style="solid",fontname="Helvetica"];
  Node26 [label="utility",height=0.2,width=0.4,color="grey75", fillcolor="white", style="filled"];
  Node25 -> Node27 [color="midnightblue",fontsize="10",style="solid",fontname="Helvetica"];
  Node27 [label="algorithm",height=0.2,width=0.4,color="grey75", fillcolor="white", style="filled"];
  Node25 -> Node28 [color="midnightblue",fontsize="10",style="solid",fontname="Helvetica"];
  Node28 [label="stdlib.h",height=0.2,width=0.4,color="grey75", fillcolor="white", style="filled"];
  Node25 -> Node15 [color="midnightblue",fontsize="10",style="solid",fontname="Helvetica"];
  Node25 -> Node29 [color="midnightblue",fontsize="10",style="solid",fontname="Helvetica"];
  Node29 [label="../Color/ccolor.h",height=0.2,width=0.4,color="black", fillcolor="white", style="filled",URL="$ccolor_8h.html"];
  Node29 -> Node8 [color="midnightblue",fontsize="10",style="solid",fontname="Helvetica"];
  Node2 -> Node30 [color="midnightblue",fontsize="10",style="solid",fontname="Helvetica"];
  Node30 [label="../CFG/CFG.h",height=0.2,width=0.4,color="black", fillcolor="white", style="filled",URL="$_c_f_g_8h.html"];
  Node30 -> Node4 [color="midnightblue",fontsize="10",style="solid",fontname="Helvetica"];
  Node30 -> Node5 [color="midnightblue",fontsize="10",style="solid",fontname="Helvetica"];
  Node30 -> Node6 [color="midnightblue",fontsize="10",style="solid",fontname="Helvetica"];
  Node30 -> Node12 [color="midnightblue",fontsize="10",style="solid",fontname="Helvetica"];
  Node30 -> Node8 [color="midnightblue",fontsize="10",style="solid",fontname="Helvetica"];
  Node30 -> Node9 [color="midnightblue",fontsize="10",style="solid",fontname="Helvetica"];
  Node30 -> Node31 [color="midnightblue",fontsize="10",style="solid",fontname="Helvetica"];
  Node31 [label="queue",height=0.2,width=0.4,color="grey75", fillcolor="white", style="filled"];
  Node30 -> Node25 [color="midnightblue",fontsize="10",style="solid",fontname="Helvetica"];
  Node30 -> Node15 [color="midnightblue",fontsize="10",style="solid",fontname="Helvetica"];
  Node30 -> Node17 [color="midnightblue",fontsize="10",style="solid",fontname="Helvetica"];
  Node2 -> Node25 [color="midnightblue",fontsize="10",style="solid",fontname="Helvetica"];
  Node2 -> Node13 [color="midnightblue",fontsize="10",style="solid",fontname="Helvetica"];
  Node2 -> Node14 [color="midnightblue",fontsize="10",style="solid",fontname="Helvetica"];
  Node2 -> Node6 [color="midnightblue",fontsize="10",style="solid",fontname="Helvetica"];
  Node2 -> Node4 [color="midnightblue",fontsize="10",style="solid",fontname="Helvetica"];
  Node2 -> Node12 [color="midnightblue",fontsize="10",style="solid",fontname="Helvetica"];
  Node2 -> Node10 [color="midnightblue",fontsize="10",style="solid",fontname="Helvetica"];
}
