digraph "tinyxml2::XMLElement::QueryUnsignedAttribute"
{
  edge [fontname="Helvetica",fontsize="10",labelfontname="Helvetica",labelfontsize="10"];
  node [fontname="Helvetica",fontsize="10",shape=record];
  rankdir="LR";
  Node1 [label="tinyxml2::XMLElement\l::QueryUnsignedAttribute",height=0.2,width=0.4,color="black", fillcolor="grey75", style="filled" fontcolor="black"];
  Node1 -> Node2 [color="midnightblue",fontsize="10",style="solid",fontname="Helvetica"];
  Node2 [label="tinyxml2::XMLAttribute\l::QueryUnsignedValue",height=0.2,width=0.4,color="black", fillcolor="white", style="filled",URL="$classtinyxml2_1_1_x_m_l_attribute.html#ac93f5981adfd62ac4ea76bfa668ee2b4",tooltip="See QueryIntValue. "];
  Node2 -> Node3 [color="midnightblue",fontsize="10",style="solid",fontname="Helvetica"];
  Node3 [label="tinyxml2::XMLUtil::\lToUnsigned",height=0.2,width=0.4,color="black", fillcolor="white", style="filled",URL="$classtinyxml2_1_1_x_m_l_util.html#a210c8637d5eb4ce3d4625294af0efc2f"];
  Node2 -> Node4 [color="midnightblue",fontsize="10",style="solid",fontname="Helvetica"];
  Node4 [label="tinyxml2::XMLAttribute\l::Value",height=0.2,width=0.4,color="black", fillcolor="white", style="filled",URL="$classtinyxml2_1_1_x_m_l_attribute.html#aa9b08c6e592b0c88117c46666dcc1af2",tooltip="The value of the attribute. "];
  Node4 -> Node5 [color="midnightblue",fontsize="10",style="solid",fontname="Helvetica"];
  Node5 [label="tinyxml2::StrPair::\lGetStr",height=0.2,width=0.4,color="black", fillcolor="white", style="filled",URL="$classtinyxml2_1_1_str_pair.html#ad87e3d11330f5e689ba1e7e54c023b57"];
  Node5 -> Node6 [color="midnightblue",fontsize="10",style="solid",fontname="Helvetica"];
  Node6 [label="tinyxml2::XMLUtil::\lGetCharacterRef",height=0.2,width=0.4,color="black", fillcolor="white", style="filled",URL="$classtinyxml2_1_1_x_m_l_util.html#a5a96e5144a8d693dc4bcd783d9964648"];
  Node6 -> Node7 [color="midnightblue",fontsize="10",style="solid",fontname="Helvetica"];
  Node7 [label="tinyxml2::XMLUtil::\lConvertUTF32ToUTF8",height=0.2,width=0.4,color="black", fillcolor="white", style="filled",URL="$classtinyxml2_1_1_x_m_l_util.html#a31c00d5c5dfb38382de1dfcaf4be3595"];
}
