digraph "tinyxml2::XMLDocument"
{
  edge [fontname="Helvetica",fontsize="10",labelfontname="Helvetica",labelfontsize="10"];
  node [fontname="Helvetica",fontsize="10",shape=record];
  Node1 [label="tinyxml2::XMLDocument",height=0.2,width=0.4,color="black", fillcolor="grey75", style="filled" fontcolor="black"];
  Node2 -> Node1 [dir="back",color="midnightblue",fontsize="10",style="solid",fontname="Helvetica"];
  Node2 [label="tinyxml2::XMLNode",height=0.2,width=0.4,color="black", fillcolor="white", style="filled",URL="$classtinyxml2_1_1_x_m_l_node.html"];
  Node1 -> Node2 [dir="back",color="darkorchid3",fontsize="10",style="dashed",label=" _document" ,fontname="Helvetica"];
  Node3 -> Node2 [dir="back",color="darkorchid3",fontsize="10",style="dashed",label=" _value" ,fontname="Helvetica"];
  Node3 [label="tinyxml2::StrPair",height=0.2,width=0.4,color="black", fillcolor="white", style="filled",URL="$classtinyxml2_1_1_str_pair.html"];
  Node2 -> Node2 [dir="back",color="darkorchid3",fontsize="10",style="dashed",label=" _lastChild\n_prev\n_parent\n_next\n_firstChild" ,fontname="Helvetica"];
}
