digraph "tinyxml2::XMLPrinter::VisitEnter"
{
  edge [fontname="Helvetica",fontsize="10",labelfontname="Helvetica",labelfontsize="10"];
  node [fontname="Helvetica",fontsize="10",shape=record];
  rankdir="LR";
  Node1 [label="tinyxml2::XMLPrinter\l::VisitEnter",height=0.2,width=0.4,color="black", fillcolor="grey75", style="filled" fontcolor="black"];
  Node1 -> Node2 [color="midnightblue",fontsize="10",style="solid",fontname="Helvetica"];
  Node2 [label="tinyxml2::XMLPrinter\l::OpenElement",height=0.2,width=0.4,color="black", fillcolor="white", style="filled",URL="$classtinyxml2_1_1_x_m_l_printer.html#aa10d330818dbc31b44e9ffc27618bdfb"];
  Node2 -> Node3 [color="midnightblue",fontsize="10",style="solid",fontname="Helvetica"];
  Node3 [label="tinyxml2::XMLPrinter\l::SealElement",height=0.2,width=0.4,color="black", fillcolor="white", style="filled",URL="$classtinyxml2_1_1_x_m_l_printer.html#a70ac2010150c8551773ffb2f96fef353"];
  Node2 -> Node4 [color="midnightblue",fontsize="10",style="solid",fontname="Helvetica"];
  Node4 [label="tinyxml2::DynArray\l::Push",height=0.2,width=0.4,color="black", fillcolor="white", style="filled",URL="$classtinyxml2_1_1_dyn_array.html#a498de53808ba0151fef54ea10bf51050"];
  Node1 -> Node5 [color="midnightblue",fontsize="10",style="solid",fontname="Helvetica"];
  Node5 [label="tinyxml2::XMLElement\l::Name",height=0.2,width=0.4,color="black", fillcolor="white", style="filled",URL="$classtinyxml2_1_1_x_m_l_element.html#a8bff355472bce2c60d4b50a212bf7f5f",tooltip="Get the name of an element (which is the Value() of the node.) "];
  Node1 -> Node6 [color="midnightblue",fontsize="10",style="solid",fontname="Helvetica"];
  Node6 [label="tinyxml2::XMLPrinter\l::PushAttribute",height=0.2,width=0.4,color="black", fillcolor="white", style="filled",URL="$classtinyxml2_1_1_x_m_l_printer.html#a9a4e2c9348b42e147629d5a99f4af3f0",tooltip="If streaming, add an attribute to an open element. "];
  Node1 -> Node7 [color="midnightblue",fontsize="10",style="solid",fontname="Helvetica"];
  Node7 [label="tinyxml2::XMLAttribute\l::Name",height=0.2,width=0.4,color="black", fillcolor="white", style="filled",URL="$classtinyxml2_1_1_x_m_l_attribute.html#a8124fbfd27f57150cc68d8a9207078c3",tooltip="The name of the attribute. "];
  Node7 -> Node8 [color="midnightblue",fontsize="10",style="solid",fontname="Helvetica"];
  Node8 [label="tinyxml2::StrPair::\lGetStr",height=0.2,width=0.4,color="black", fillcolor="white", style="filled",URL="$classtinyxml2_1_1_str_pair.html#ad87e3d11330f5e689ba1e7e54c023b57"];
  Node8 -> Node9 [color="midnightblue",fontsize="10",style="solid",fontname="Helvetica"];
  Node9 [label="tinyxml2::XMLUtil::\lGetCharacterRef",height=0.2,width=0.4,color="black", fillcolor="white", style="filled",URL="$classtinyxml2_1_1_x_m_l_util.html#a5a96e5144a8d693dc4bcd783d9964648"];
  Node9 -> Node10 [color="midnightblue",fontsize="10",style="solid",fontname="Helvetica"];
  Node10 [label="tinyxml2::XMLUtil::\lConvertUTF32ToUTF8",height=0.2,width=0.4,color="black", fillcolor="white", style="filled",URL="$classtinyxml2_1_1_x_m_l_util.html#a31c00d5c5dfb38382de1dfcaf4be3595"];
  Node1 -> Node11 [color="midnightblue",fontsize="10",style="solid",fontname="Helvetica"];
  Node11 [label="tinyxml2::XMLAttribute\l::Value",height=0.2,width=0.4,color="black", fillcolor="white", style="filled",URL="$classtinyxml2_1_1_x_m_l_attribute.html#aa9b08c6e592b0c88117c46666dcc1af2",tooltip="The value of the attribute. "];
  Node11 -> Node8 [color="midnightblue",fontsize="10",style="solid",fontname="Helvetica"];
  Node1 -> Node12 [color="midnightblue",fontsize="10",style="solid",fontname="Helvetica"];
  Node12 [label="tinyxml2::XMLAttribute\l::Next",height=0.2,width=0.4,color="black", fillcolor="white", style="filled",URL="$classtinyxml2_1_1_x_m_l_attribute.html#a7fd852d6185af90361ec1bc9a7681ad6",tooltip="The next attribute in the list. "];
}
