digraph "tinyxml2::XMLVisitor"
{
  edge [fontname="Helvetica",fontsize="10",labelfontname="Helvetica",labelfontsize="10"];
  node [fontname="Helvetica",fontsize="10",shape=record];
  Node1 [label="tinyxml2::XMLVisitor",height=0.2,width=0.4,color="black", fillcolor="grey75", style="filled" fontcolor="black"];
  Node1 -> Node2 [dir="back",color="midnightblue",fontsize="10",style="solid",fontname="Helvetica"];
  Node2 [label="tinyxml2::XMLPrinter",height=0.2,width=0.4,color="black", fillcolor="white", style="filled",URL="$classtinyxml2_1_1_x_m_l_printer.html"];
}
