digraph "src/Parser/tinyxml2.h"
{
  edge [fontname="Helvetica",fontsize="10",labelfontname="Helvetica",labelfontsize="10"];
  node [fontname="Helvetica",fontsize="10",shape=record];
  Node1 [label="src/Parser/tinyxml2.h",height=0.2,width=0.4,color="black", fillcolor="grey75", style="filled" fontcolor="black"];
  Node1 -> Node2 [dir="back",color="midnightblue",fontsize="10",style="solid",fontname="Helvetica"];
  Node2 [label="src/CFG/CFG.h",height=0.2,width=0.4,color="black", fillcolor="white", style="filled",URL="$_c_f_g_8h.html"];
  Node2 -> Node3 [dir="back",color="midnightblue",fontsize="10",style="solid",fontname="Helvetica"];
  Node3 [label="src/CFG/CFG.cpp",height=0.2,width=0.4,color="black", fillcolor="white", style="filled",URL="$_c_f_g_8cpp.html"];
  Node2 -> Node4 [dir="back",color="midnightblue",fontsize="10",style="solid",fontname="Helvetica"];
  Node4 [label="src/CONV/CONV.h",height=0.2,width=0.4,color="black", fillcolor="white", style="filled",URL="$_c_o_n_v_8h.html"];
  Node4 -> Node5 [dir="back",color="midnightblue",fontsize="10",style="solid",fontname="Helvetica"];
  Node5 [label="src/CONV/CONV.cpp",height=0.2,width=0.4,color="black", fillcolor="white", style="filled",URL="$_c_o_n_v_8cpp.html"];
  Node4 -> Node6 [dir="back",color="midnightblue",fontsize="10",style="solid",fontname="Helvetica"];
  Node6 [label="src/main.cpp",height=0.2,width=0.4,color="black", fillcolor="white", style="filled",URL="$main_8cpp.html"];
  Node2 -> Node6 [dir="back",color="midnightblue",fontsize="10",style="solid",fontname="Helvetica"];
  Node1 -> Node7 [dir="back",color="midnightblue",fontsize="10",style="solid",fontname="Helvetica"];
  Node7 [label="src/PDA/PDA.h",height=0.2,width=0.4,color="black", fillcolor="white", style="filled",URL="$_p_d_a_8h.html"];
  Node7 -> Node4 [dir="back",color="midnightblue",fontsize="10",style="solid",fontname="Helvetica"];
  Node7 -> Node6 [dir="back",color="midnightblue",fontsize="10",style="solid",fontname="Helvetica"];
  Node7 -> Node8 [dir="back",color="midnightblue",fontsize="10",style="solid",fontname="Helvetica"];
  Node8 [label="src/PDA/PDA.cpp",height=0.2,width=0.4,color="black", fillcolor="white", style="filled",URL="$_p_d_a_8cpp.html"];
  Node1 -> Node9 [dir="back",color="midnightblue",fontsize="10",style="solid",fontname="Helvetica"];
  Node9 [label="src/Parser/tinyxml2.cpp",height=0.2,width=0.4,color="black", fillcolor="white", style="filled",URL="$tinyxml2_8cpp.html"];
}
